range
name Date
type date
height 7

1/1940,2/1940 has 1/1/1940,8/1/1940 9/1/1940,16/1/1940 17/1/1940,24/1/1940 25/1/1940,1/2/1940 2/2/1940,9/2/1940 10/2/1940,17/2/1940 18/2/1940,25/2/1940 26/2/1940,29/2/1940 
3/1940,4/1940 has 1/3/1940,8/3/1940 9/3/1940,16/3/1940 17/3/1940,24/3/1940 25/3/1940,1/4/1940 2/4/1940,9/4/1940 10/4/1940,17/4/1940 18/4/1940,25/4/1940 26/4/1940,30/4/1940 
5/1940,6/1940 has 1/5/1940,8/5/1940 9/5/1940,16/5/1940 17/5/1940,24/5/1940 25/5/1940,1/6/1940 2/6/1940,9/6/1940 10/6/1940,17/6/1940 18/6/1940,25/6/1940 26/6/1940,30/6/1940 
7/1940,8/1940 has 1/7/1940,8/7/1940 9/7/1940,16/7/1940 17/7/1940,24/7/1940 25/7/1940,1/8/1940 2/8/1940,9/8/1940 10/8/1940,17/8/1940 18/8/1940,25/8/1940 26/8/1940,31/8/1940 
9/1940,10/1940 has 1/9/1940,8/9/1940 9/9/1940,16/9/1940 17/9/1940,24/9/1940 25/9/1940,2/10/1940 3/10/1940,10/10/1940 11/10/1940,18/10/1940 19/10/1940,26/10/1940 27/10/1940,31/10/1940 
11/1940,12/1940 has 1/11/1940,8/11/1940 9/11/1940,16/11/1940 17/11/1940,24/11/1940 25/11/1940,2/12/1940 3/12/1940,10/12/1940 11/12/1940,18/12/1940 19/12/1940,26/12/1940 27/12/1940,31/12/1940 
1/1941,2/1941 has 1/1/1941,8/1/1941 9/1/1941,16/1/1941 17/1/1941,24/1/1941 25/1/1941,1/2/1941 2/2/1941,9/2/1941 10/2/1941,17/2/1941 18/2/1941,25/2/1941 26/2/1941,28/2/1941 
3/1941,4/1941 has 1/3/1941,8/3/1941 9/3/1941,16/3/1941 17/3/1941,24/3/1941 25/3/1941,1/4/1941 2/4/1941,9/4/1941 10/4/1941,17/4/1941 18/4/1941,25/4/1941 26/4/1941,30/4/1941 
5/1941,6/1941 has 1/5/1941,8/5/1941 9/5/1941,16/5/1941 17/5/1941,24/5/1941 25/5/1941,1/6/1941 2/6/1941,9/6/1941 10/6/1941,17/6/1941 18/6/1941,25/6/1941 26/6/1941,30/6/1941 
7/1941,8/1941 has 1/7/1941,8/7/1941 9/7/1941,16/7/1941 17/7/1941,24/7/1941 25/7/1941,1/8/1941 2/8/1941,9/8/1941 10/8/1941,17/8/1941 18/8/1941,25/8/1941 26/8/1941,31/8/1941 
9/1941,10/1941 has 1/9/1941,8/9/1941 9/9/1941,16/9/1941 17/9/1941,24/9/1941 25/9/1941,2/10/1941 3/10/1941,10/10/1941 11/10/1941,18/10/1941 19/10/1941,26/10/1941 27/10/1941,31/10/1941 
11/1941,12/1941 has 1/11/1941,8/11/1941 9/11/1941,16/11/1941 17/11/1941,24/11/1941 25/11/1941,2/12/1941 3/12/1941,10/12/1941 11/12/1941,18/12/1941 19/12/1941,26/12/1941 27/12/1941,31/12/1941 
1/1942,2/1942 has 1/1/1942,8/1/1942 9/1/1942,16/1/1942 17/1/1942,24/1/1942 25/1/1942,1/2/1942 2/2/1942,9/2/1942 10/2/1942,17/2/1942 18/2/1942,25/2/1942 26/2/1942,28/2/1942 
3/1942,4/1942 has 1/3/1942,8/3/1942 9/3/1942,16/3/1942 17/3/1942,24/3/1942 25/3/1942,1/4/1942 2/4/1942,9/4/1942 10/4/1942,17/4/1942 18/4/1942,25/4/1942 26/4/1942,30/4/1942 
5/1942,6/1942 has 1/5/1942,8/5/1942 9/5/1942,16/5/1942 17/5/1942,24/5/1942 25/5/1942,1/6/1942 2/6/1942,9/6/1942 10/6/1942,17/6/1942 18/6/1942,25/6/1942 26/6/1942,30/6/1942 
7/1942,8/1942 has 1/7/1942,8/7/1942 9/7/1942,16/7/1942 17/7/1942,24/7/1942 25/7/1942,1/8/1942 2/8/1942,9/8/1942 10/8/1942,17/8/1942 18/8/1942,25/8/1942 26/8/1942,31/8/1942 
9/1942,10/1942 has 1/9/1942,8/9/1942 9/9/1942,16/9/1942 17/9/1942,24/9/1942 25/9/1942,2/10/1942 3/10/1942,10/10/1942 11/10/1942,18/10/1942 19/10/1942,26/10/1942 27/10/1942,31/10/1942 
11/1942,12/1942 has 1/11/1942,8/11/1942 9/11/1942,16/11/1942 17/11/1942,24/11/1942 25/11/1942,2/12/1942 3/12/1942,10/12/1942 11/12/1942,18/12/1942 19/12/1942,26/12/1942 27/12/1942,31/12/1942 
1/1943,2/1943 has 1/1/1943,8/1/1943 9/1/1943,16/1/1943 17/1/1943,24/1/1943 25/1/1943,1/2/1943 2/2/1943,9/2/1943 10/2/1943,17/2/1943 18/2/1943,25/2/1943 26/2/1943,28/2/1943 
3/1943,4/1943 has 1/3/1943,8/3/1943 9/3/1943,16/3/1943 17/3/1943,24/3/1943 25/3/1943,1/4/1943 2/4/1943,9/4/1943 10/4/1943,17/4/1943 18/4/1943,25/4/1943 26/4/1943,30/4/1943 
5/1943,6/1943 has 1/5/1943,8/5/1943 9/5/1943,16/5/1943 17/5/1943,24/5/1943 25/5/1943,1/6/1943 2/6/1943,9/6/1943 10/6/1943,17/6/1943 18/6/1943,25/6/1943 26/6/1943,30/6/1943 
7/1943,8/1943 has 1/7/1943,8/7/1943 9/7/1943,16/7/1943 17/7/1943,24/7/1943 25/7/1943,1/8/1943 2/8/1943,9/8/1943 10/8/1943,17/8/1943 18/8/1943,25/8/1943 26/8/1943,31/8/1943 
9/1943,10/1943 has 1/9/1943,8/9/1943 9/9/1943,16/9/1943 17/9/1943,24/9/1943 25/9/1943,2/10/1943 3/10/1943,10/10/1943 11/10/1943,18/10/1943 19/10/1943,26/10/1943 27/10/1943,31/10/1943 
11/1943,12/1943 has 1/11/1943,8/11/1943 9/11/1943,16/11/1943 17/11/1943,24/11/1943 25/11/1943,2/12/1943 3/12/1943,10/12/1943 11/12/1943,18/12/1943 19/12/1943,26/12/1943 27/12/1943,31/12/1943 
1/1944,2/1944 has 1/1/1944,8/1/1944 9/1/1944,16/1/1944 17/1/1944,24/1/1944 25/1/1944,1/2/1944 2/2/1944,9/2/1944 10/2/1944,17/2/1944 18/2/1944,25/2/1944 26/2/1944,29/2/1944 
3/1944,4/1944 has 1/3/1944,8/3/1944 9/3/1944,16/3/1944 17/3/1944,24/3/1944 25/3/1944,1/4/1944 2/4/1944,9/4/1944 10/4/1944,17/4/1944 18/4/1944,25/4/1944 26/4/1944,30/4/1944 
5/1944,6/1944 has 1/5/1944,8/5/1944 9/5/1944,16/5/1944 17/5/1944,24/5/1944 25/5/1944,1/6/1944 2/6/1944,9/6/1944 10/6/1944,17/6/1944 18/6/1944,25/6/1944 26/6/1944,30/6/1944 
7/1944,8/1944 has 1/7/1944,8/7/1944 9/7/1944,16/7/1944 17/7/1944,24/7/1944 25/7/1944,1/8/1944 2/8/1944,9/8/1944 10/8/1944,17/8/1944 18/8/1944,25/8/1944 26/8/1944,31/8/1944 
9/1944,10/1944 has 1/9/1944,8/9/1944 9/9/1944,16/9/1944 17/9/1944,24/9/1944 25/9/1944,2/10/1944 3/10/1944,10/10/1944 11/10/1944,18/10/1944 19/10/1944,26/10/1944 27/10/1944,31/10/1944 
11/1944,12/1944 has 1/11/1944,8/11/1944 9/11/1944,16/11/1944 17/11/1944,24/11/1944 25/11/1944,2/12/1944 3/12/1944,10/12/1944 11/12/1944,18/12/1944 19/12/1944,26/12/1944 27/12/1944,31/12/1944 
1/1945,2/1945 has 1/1/1945,8/1/1945 9/1/1945,16/1/1945 17/1/1945,24/1/1945 25/1/1945,1/2/1945 2/2/1945,9/2/1945 10/2/1945,17/2/1945 18/2/1945,25/2/1945 26/2/1945,28/2/1945 
3/1945,4/1945 has 1/3/1945,8/3/1945 9/3/1945,16/3/1945 17/3/1945,24/3/1945 25/3/1945,1/4/1945 2/4/1945,9/4/1945 10/4/1945,17/4/1945 18/4/1945,25/4/1945 26/4/1945,30/4/1945 
5/1945,6/1945 has 1/5/1945,8/5/1945 9/5/1945,16/5/1945 17/5/1945,24/5/1945 25/5/1945,1/6/1945 2/6/1945,9/6/1945 10/6/1945,17/6/1945 18/6/1945,25/6/1945 26/6/1945,30/6/1945 
7/1945,8/1945 has 1/7/1945,8/7/1945 9/7/1945,16/7/1945 17/7/1945,24/7/1945 25/7/1945,1/8/1945 2/8/1945,9/8/1945 10/8/1945,17/8/1945 18/8/1945,25/8/1945 26/8/1945,31/8/1945 
9/1945,10/1945 has 1/9/1945,8/9/1945 9/9/1945,16/9/1945 17/9/1945,24/9/1945 25/9/1945,2/10/1945 3/10/1945,10/10/1945 11/10/1945,18/10/1945 19/10/1945,26/10/1945 27/10/1945,31/10/1945 
11/1945,12/1945 has 1/11/1945,8/11/1945 9/11/1945,16/11/1945 17/11/1945,24/11/1945 25/11/1945,2/12/1945 3/12/1945,10/12/1945 11/12/1945,18/12/1945 19/12/1945,26/12/1945 27/12/1945,31/12/1945 
1/1946,2/1946 has 1/1/1946,8/1/1946 9/1/1946,16/1/1946 17/1/1946,24/1/1946 25/1/1946,1/2/1946 2/2/1946,9/2/1946 10/2/1946,17/2/1946 18/2/1946,25/2/1946 26/2/1946,28/2/1946 
3/1946,4/1946 has 1/3/1946,8/3/1946 9/3/1946,16/3/1946 17/3/1946,24/3/1946 25/3/1946,1/4/1946 2/4/1946,9/4/1946 10/4/1946,17/4/1946 18/4/1946,25/4/1946 26/4/1946,30/4/1946 
5/1946,6/1946 has 1/5/1946,8/5/1946 9/5/1946,16/5/1946 17/5/1946,24/5/1946 25/5/1946,1/6/1946 2/6/1946,9/6/1946 10/6/1946,17/6/1946 18/6/1946,25/6/1946 26/6/1946,30/6/1946 
7/1946,8/1946 has 1/7/1946,8/7/1946 9/7/1946,16/7/1946 17/7/1946,24/7/1946 25/7/1946,1/8/1946 2/8/1946,9/8/1946 10/8/1946,17/8/1946 18/8/1946,25/8/1946 26/8/1946,31/8/1946 
9/1946,10/1946 has 1/9/1946,8/9/1946 9/9/1946,16/9/1946 17/9/1946,24/9/1946 25/9/1946,2/10/1946 3/10/1946,10/10/1946 11/10/1946,18/10/1946 19/10/1946,26/10/1946 27/10/1946,31/10/1946 
11/1946,12/1946 has 1/11/1946,8/11/1946 9/11/1946,16/11/1946 17/11/1946,24/11/1946 25/11/1946,2/12/1946 3/12/1946,10/12/1946 11/12/1946,18/12/1946 19/12/1946,26/12/1946 27/12/1946,31/12/1946 
1/1947,2/1947 has 1/1/1947,8/1/1947 9/1/1947,16/1/1947 17/1/1947,24/1/1947 25/1/1947,1/2/1947 2/2/1947,9/2/1947 10/2/1947,17/2/1947 18/2/1947,25/2/1947 26/2/1947,28/2/1947 
3/1947,4/1947 has 1/3/1947,8/3/1947 9/3/1947,16/3/1947 17/3/1947,24/3/1947 25/3/1947,1/4/1947 2/4/1947,9/4/1947 10/4/1947,17/4/1947 18/4/1947,25/4/1947 26/4/1947,30/4/1947 
5/1947,6/1947 has 1/5/1947,8/5/1947 9/5/1947,16/5/1947 17/5/1947,24/5/1947 25/5/1947,1/6/1947 2/6/1947,9/6/1947 10/6/1947,17/6/1947 18/6/1947,25/6/1947 26/6/1947,30/6/1947 
7/1947,8/1947 has 1/7/1947,8/7/1947 9/7/1947,16/7/1947 17/7/1947,24/7/1947 25/7/1947,1/8/1947 2/8/1947,9/8/1947 10/8/1947,17/8/1947 18/8/1947,25/8/1947 26/8/1947,31/8/1947 
9/1947,10/1947 has 1/9/1947,8/9/1947 9/9/1947,16/9/1947 17/9/1947,24/9/1947 25/9/1947,2/10/1947 3/10/1947,10/10/1947 11/10/1947,18/10/1947 19/10/1947,26/10/1947 27/10/1947,31/10/1947 
11/1947,12/1947 has 1/11/1947,8/11/1947 9/11/1947,16/11/1947 17/11/1947,24/11/1947 25/11/1947,2/12/1947 3/12/1947,10/12/1947 11/12/1947,18/12/1947 19/12/1947,26/12/1947 27/12/1947,31/12/1947 
1/1948,2/1948 has 1/1/1948,8/1/1948 9/1/1948,16/1/1948 17/1/1948,24/1/1948 25/1/1948,1/2/1948 2/2/1948,9/2/1948 10/2/1948,17/2/1948 18/2/1948,25/2/1948 26/2/1948,29/2/1948 
3/1948,4/1948 has 1/3/1948,8/3/1948 9/3/1948,16/3/1948 17/3/1948,24/3/1948 25/3/1948,1/4/1948 2/4/1948,9/4/1948 10/4/1948,17/4/1948 18/4/1948,25/4/1948 26/4/1948,30/4/1948 
5/1948,6/1948 has 1/5/1948,8/5/1948 9/5/1948,16/5/1948 17/5/1948,24/5/1948 25/5/1948,1/6/1948 2/6/1948,9/6/1948 10/6/1948,17/6/1948 18/6/1948,25/6/1948 26/6/1948,30/6/1948 
7/1948,8/1948 has 1/7/1948,8/7/1948 9/7/1948,16/7/1948 17/7/1948,24/7/1948 25/7/1948,1/8/1948 2/8/1948,9/8/1948 10/8/1948,17/8/1948 18/8/1948,25/8/1948 26/8/1948,31/8/1948 
9/1948,10/1948 has 1/9/1948,8/9/1948 9/9/1948,16/9/1948 17/9/1948,24/9/1948 25/9/1948,2/10/1948 3/10/1948,10/10/1948 11/10/1948,18/10/1948 19/10/1948,26/10/1948 27/10/1948,31/10/1948 
11/1948,12/1948 has 1/11/1948,8/11/1948 9/11/1948,16/11/1948 17/11/1948,24/11/1948 25/11/1948,2/12/1948 3/12/1948,10/12/1948 11/12/1948,18/12/1948 19/12/1948,26/12/1948 27/12/1948,31/12/1948 
1/1949,2/1949 has 1/1/1949,8/1/1949 9/1/1949,16/1/1949 17/1/1949,24/1/1949 25/1/1949,1/2/1949 2/2/1949,9/2/1949 10/2/1949,17/2/1949 18/2/1949,25/2/1949 26/2/1949,28/2/1949 
3/1949,4/1949 has 1/3/1949,8/3/1949 9/3/1949,16/3/1949 17/3/1949,24/3/1949 25/3/1949,1/4/1949 2/4/1949,9/4/1949 10/4/1949,17/4/1949 18/4/1949,25/4/1949 26/4/1949,30/4/1949 
5/1949,6/1949 has 1/5/1949,8/5/1949 9/5/1949,16/5/1949 17/5/1949,24/5/1949 25/5/1949,1/6/1949 2/6/1949,9/6/1949 10/6/1949,17/6/1949 18/6/1949,25/6/1949 26/6/1949,30/6/1949 
7/1949,8/1949 has 1/7/1949,8/7/1949 9/7/1949,16/7/1949 17/7/1949,24/7/1949 25/7/1949,1/8/1949 2/8/1949,9/8/1949 10/8/1949,17/8/1949 18/8/1949,25/8/1949 26/8/1949,31/8/1949 
9/1949,10/1949 has 1/9/1949,8/9/1949 9/9/1949,16/9/1949 17/9/1949,24/9/1949 25/9/1949,2/10/1949 3/10/1949,10/10/1949 11/10/1949,18/10/1949 19/10/1949,26/10/1949 27/10/1949,31/10/1949 
11/1949,12/1949 has 1/11/1949,8/11/1949 9/11/1949,16/11/1949 17/11/1949,24/11/1949 25/11/1949,2/12/1949 3/12/1949,10/12/1949 11/12/1949,18/12/1949 19/12/1949,26/12/1949 27/12/1949,31/12/1949 
1/1950,2/1950 has 1/1/1950,8/1/1950 9/1/1950,16/1/1950 17/1/1950,24/1/1950 25/1/1950,1/2/1950 2/2/1950,9/2/1950 10/2/1950,17/2/1950 18/2/1950,25/2/1950 26/2/1950,28/2/1950 
3/1950,4/1950 has 1/3/1950,8/3/1950 9/3/1950,16/3/1950 17/3/1950,24/3/1950 25/3/1950,1/4/1950 2/4/1950,9/4/1950 10/4/1950,17/4/1950 18/4/1950,25/4/1950 26/4/1950,30/4/1950 
5/1950,6/1950 has 1/5/1950,8/5/1950 9/5/1950,16/5/1950 17/5/1950,24/5/1950 25/5/1950,1/6/1950 2/6/1950,9/6/1950 10/6/1950,17/6/1950 18/6/1950,25/6/1950 26/6/1950,30/6/1950 
7/1950,8/1950 has 1/7/1950,8/7/1950 9/7/1950,16/7/1950 17/7/1950,24/7/1950 25/7/1950,1/8/1950 2/8/1950,9/8/1950 10/8/1950,17/8/1950 18/8/1950,25/8/1950 26/8/1950,31/8/1950 
9/1950,10/1950 has 1/9/1950,8/9/1950 9/9/1950,16/9/1950 17/9/1950,24/9/1950 25/9/1950,2/10/1950 3/10/1950,10/10/1950 11/10/1950,18/10/1950 19/10/1950,26/10/1950 27/10/1950,31/10/1950 
11/1950,12/1950 has 1/11/1950,8/11/1950 9/11/1950,16/11/1950 17/11/1950,24/11/1950 25/11/1950,2/12/1950 3/12/1950,10/12/1950 11/12/1950,18/12/1950 19/12/1950,26/12/1950 27/12/1950,31/12/1950 
1/1951,2/1951 has 1/1/1951,8/1/1951 9/1/1951,16/1/1951 17/1/1951,24/1/1951 25/1/1951,1/2/1951 2/2/1951,9/2/1951 10/2/1951,17/2/1951 18/2/1951,25/2/1951 26/2/1951,28/2/1951 
3/1951,4/1951 has 1/3/1951,8/3/1951 9/3/1951,16/3/1951 17/3/1951,24/3/1951 25/3/1951,1/4/1951 2/4/1951,9/4/1951 10/4/1951,17/4/1951 18/4/1951,25/4/1951 26/4/1951,30/4/1951 
5/1951,6/1951 has 1/5/1951,8/5/1951 9/5/1951,16/5/1951 17/5/1951,24/5/1951 25/5/1951,1/6/1951 2/6/1951,9/6/1951 10/6/1951,17/6/1951 18/6/1951,25/6/1951 26/6/1951,30/6/1951 
7/1951,8/1951 has 1/7/1951,8/7/1951 9/7/1951,16/7/1951 17/7/1951,24/7/1951 25/7/1951,1/8/1951 2/8/1951,9/8/1951 10/8/1951,17/8/1951 18/8/1951,25/8/1951 26/8/1951,31/8/1951 
9/1951,10/1951 has 1/9/1951,8/9/1951 9/9/1951,16/9/1951 17/9/1951,24/9/1951 25/9/1951,2/10/1951 3/10/1951,10/10/1951 11/10/1951,18/10/1951 19/10/1951,26/10/1951 27/10/1951,31/10/1951 
11/1951,12/1951 has 1/11/1951,8/11/1951 9/11/1951,16/11/1951 17/11/1951,24/11/1951 25/11/1951,2/12/1951 3/12/1951,10/12/1951 11/12/1951,18/12/1951 19/12/1951,26/12/1951 27/12/1951,31/12/1951 
1/1952,2/1952 has 1/1/1952,8/1/1952 9/1/1952,16/1/1952 17/1/1952,24/1/1952 25/1/1952,1/2/1952 2/2/1952,9/2/1952 10/2/1952,17/2/1952 18/2/1952,25/2/1952 26/2/1952,29/2/1952 
3/1952,4/1952 has 1/3/1952,8/3/1952 9/3/1952,16/3/1952 17/3/1952,24/3/1952 25/3/1952,1/4/1952 2/4/1952,9/4/1952 10/4/1952,17/4/1952 18/4/1952,25/4/1952 26/4/1952,30/4/1952 
5/1952,6/1952 has 1/5/1952,8/5/1952 9/5/1952,16/5/1952 17/5/1952,24/5/1952 25/5/1952,1/6/1952 2/6/1952,9/6/1952 10/6/1952,17/6/1952 18/6/1952,25/6/1952 26/6/1952,30/6/1952 
7/1952,8/1952 has 1/7/1952,8/7/1952 9/7/1952,16/7/1952 17/7/1952,24/7/1952 25/7/1952,1/8/1952 2/8/1952,9/8/1952 10/8/1952,17/8/1952 18/8/1952,25/8/1952 26/8/1952,31/8/1952 
9/1952,10/1952 has 1/9/1952,8/9/1952 9/9/1952,16/9/1952 17/9/1952,24/9/1952 25/9/1952,2/10/1952 3/10/1952,10/10/1952 11/10/1952,18/10/1952 19/10/1952,26/10/1952 27/10/1952,31/10/1952 
11/1952,12/1952 has 1/11/1952,8/11/1952 9/11/1952,16/11/1952 17/11/1952,24/11/1952 25/11/1952,2/12/1952 3/12/1952,10/12/1952 11/12/1952,18/12/1952 19/12/1952,26/12/1952 27/12/1952,31/12/1952 
1/1953,2/1953 has 1/1/1953,8/1/1953 9/1/1953,16/1/1953 17/1/1953,24/1/1953 25/1/1953,1/2/1953 2/2/1953,9/2/1953 10/2/1953,17/2/1953 18/2/1953,25/2/1953 26/2/1953,28/2/1953 
3/1953,4/1953 has 1/3/1953,8/3/1953 9/3/1953,16/3/1953 17/3/1953,24/3/1953 25/3/1953,1/4/1953 2/4/1953,9/4/1953 10/4/1953,17/4/1953 18/4/1953,25/4/1953 26/4/1953,30/4/1953 
5/1953,6/1953 has 1/5/1953,8/5/1953 9/5/1953,16/5/1953 17/5/1953,24/5/1953 25/5/1953,1/6/1953 2/6/1953,9/6/1953 10/6/1953,17/6/1953 18/6/1953,25/6/1953 26/6/1953,30/6/1953 
7/1953,8/1953 has 1/7/1953,8/7/1953 9/7/1953,16/7/1953 17/7/1953,24/7/1953 25/7/1953,1/8/1953 2/8/1953,9/8/1953 10/8/1953,17/8/1953 18/8/1953,25/8/1953 26/8/1953,31/8/1953 
9/1953,10/1953 has 1/9/1953,8/9/1953 9/9/1953,16/9/1953 17/9/1953,24/9/1953 25/9/1953,2/10/1953 3/10/1953,10/10/1953 11/10/1953,18/10/1953 19/10/1953,26/10/1953 27/10/1953,31/10/1953 
11/1953,12/1953 has 1/11/1953,8/11/1953 9/11/1953,16/11/1953 17/11/1953,24/11/1953 25/11/1953,2/12/1953 3/12/1953,10/12/1953 11/12/1953,18/12/1953 19/12/1953,26/12/1953 27/12/1953,31/12/1953 
1/1954,2/1954 has 1/1/1954,8/1/1954 9/1/1954,16/1/1954 17/1/1954,24/1/1954 25/1/1954,1/2/1954 2/2/1954,9/2/1954 10/2/1954,17/2/1954 18/2/1954,25/2/1954 26/2/1954,28/2/1954 
3/1954,4/1954 has 1/3/1954,8/3/1954 9/3/1954,16/3/1954 17/3/1954,24/3/1954 25/3/1954,1/4/1954 2/4/1954,9/4/1954 10/4/1954,17/4/1954 18/4/1954,25/4/1954 26/4/1954,30/4/1954 
5/1954,6/1954 has 1/5/1954,8/5/1954 9/5/1954,16/5/1954 17/5/1954,24/5/1954 25/5/1954,1/6/1954 2/6/1954,9/6/1954 10/6/1954,17/6/1954 18/6/1954,25/6/1954 26/6/1954,30/6/1954 
7/1954,8/1954 has 1/7/1954,8/7/1954 9/7/1954,16/7/1954 17/7/1954,24/7/1954 25/7/1954,1/8/1954 2/8/1954,9/8/1954 10/8/1954,17/8/1954 18/8/1954,25/8/1954 26/8/1954,31/8/1954 
9/1954,10/1954 has 1/9/1954,8/9/1954 9/9/1954,16/9/1954 17/9/1954,24/9/1954 25/9/1954,2/10/1954 3/10/1954,10/10/1954 11/10/1954,18/10/1954 19/10/1954,26/10/1954 27/10/1954,31/10/1954 
11/1954,12/1954 has 1/11/1954,8/11/1954 9/11/1954,16/11/1954 17/11/1954,24/11/1954 25/11/1954,2/12/1954 3/12/1954,10/12/1954 11/12/1954,18/12/1954 19/12/1954,26/12/1954 27/12/1954,31/12/1954 
1/1955,2/1955 has 1/1/1955,8/1/1955 9/1/1955,16/1/1955 17/1/1955,24/1/1955 25/1/1955,1/2/1955 2/2/1955,9/2/1955 10/2/1955,17/2/1955 18/2/1955,25/2/1955 26/2/1955,28/2/1955 
3/1955,4/1955 has 1/3/1955,8/3/1955 9/3/1955,16/3/1955 17/3/1955,24/3/1955 25/3/1955,1/4/1955 2/4/1955,9/4/1955 10/4/1955,17/4/1955 18/4/1955,25/4/1955 26/4/1955,30/4/1955 
5/1955,6/1955 has 1/5/1955,8/5/1955 9/5/1955,16/5/1955 17/5/1955,24/5/1955 25/5/1955,1/6/1955 2/6/1955,9/6/1955 10/6/1955,17/6/1955 18/6/1955,25/6/1955 26/6/1955,30/6/1955 
7/1955,8/1955 has 1/7/1955,8/7/1955 9/7/1955,16/7/1955 17/7/1955,24/7/1955 25/7/1955,1/8/1955 2/8/1955,9/8/1955 10/8/1955,17/8/1955 18/8/1955,25/8/1955 26/8/1955,31/8/1955 
9/1955,10/1955 has 1/9/1955,8/9/1955 9/9/1955,16/9/1955 17/9/1955,24/9/1955 25/9/1955,2/10/1955 3/10/1955,10/10/1955 11/10/1955,18/10/1955 19/10/1955,26/10/1955 27/10/1955,31/10/1955 
11/1955,12/1955 has 1/11/1955,8/11/1955 9/11/1955,16/11/1955 17/11/1955,24/11/1955 25/11/1955,2/12/1955 3/12/1955,10/12/1955 11/12/1955,18/12/1955 19/12/1955,26/12/1955 27/12/1955,31/12/1955 
1/1956,2/1956 has 1/1/1956,8/1/1956 9/1/1956,16/1/1956 17/1/1956,24/1/1956 25/1/1956,1/2/1956 2/2/1956,9/2/1956 10/2/1956,17/2/1956 18/2/1956,25/2/1956 26/2/1956,29/2/1956 
3/1956,4/1956 has 1/3/1956,8/3/1956 9/3/1956,16/3/1956 17/3/1956,24/3/1956 25/3/1956,1/4/1956 2/4/1956,9/4/1956 10/4/1956,17/4/1956 18/4/1956,25/4/1956 26/4/1956,30/4/1956 
5/1956,6/1956 has 1/5/1956,8/5/1956 9/5/1956,16/5/1956 17/5/1956,24/5/1956 25/5/1956,1/6/1956 2/6/1956,9/6/1956 10/6/1956,17/6/1956 18/6/1956,25/6/1956 26/6/1956,30/6/1956 
7/1956,8/1956 has 1/7/1956,8/7/1956 9/7/1956,16/7/1956 17/7/1956,24/7/1956 25/7/1956,1/8/1956 2/8/1956,9/8/1956 10/8/1956,17/8/1956 18/8/1956,25/8/1956 26/8/1956,31/8/1956 
9/1956,10/1956 has 1/9/1956,8/9/1956 9/9/1956,16/9/1956 17/9/1956,24/9/1956 25/9/1956,2/10/1956 3/10/1956,10/10/1956 11/10/1956,18/10/1956 19/10/1956,26/10/1956 27/10/1956,31/10/1956 
11/1956,12/1956 has 1/11/1956,8/11/1956 9/11/1956,16/11/1956 17/11/1956,24/11/1956 25/11/1956,2/12/1956 3/12/1956,10/12/1956 11/12/1956,18/12/1956 19/12/1956,26/12/1956 27/12/1956,31/12/1956 
1/1957,2/1957 has 1/1/1957,8/1/1957 9/1/1957,16/1/1957 17/1/1957,24/1/1957 25/1/1957,1/2/1957 2/2/1957,9/2/1957 10/2/1957,17/2/1957 18/2/1957,25/2/1957 26/2/1957,28/2/1957 
3/1957,4/1957 has 1/3/1957,8/3/1957 9/3/1957,16/3/1957 17/3/1957,24/3/1957 25/3/1957,1/4/1957 2/4/1957,9/4/1957 10/4/1957,17/4/1957 18/4/1957,25/4/1957 26/4/1957,30/4/1957 
5/1957,6/1957 has 1/5/1957,8/5/1957 9/5/1957,16/5/1957 17/5/1957,24/5/1957 25/5/1957,1/6/1957 2/6/1957,9/6/1957 10/6/1957,17/6/1957 18/6/1957,25/6/1957 26/6/1957,30/6/1957 
7/1957,8/1957 has 1/7/1957,8/7/1957 9/7/1957,16/7/1957 17/7/1957,24/7/1957 25/7/1957,1/8/1957 2/8/1957,9/8/1957 10/8/1957,17/8/1957 18/8/1957,25/8/1957 26/8/1957,31/8/1957 
9/1957,10/1957 has 1/9/1957,8/9/1957 9/9/1957,16/9/1957 17/9/1957,24/9/1957 25/9/1957,2/10/1957 3/10/1957,10/10/1957 11/10/1957,18/10/1957 19/10/1957,26/10/1957 27/10/1957,31/10/1957 
11/1957,12/1957 has 1/11/1957,8/11/1957 9/11/1957,16/11/1957 17/11/1957,24/11/1957 25/11/1957,2/12/1957 3/12/1957,10/12/1957 11/12/1957,18/12/1957 19/12/1957,26/12/1957 27/12/1957,31/12/1957 
1/1958,2/1958 has 1/1/1958,8/1/1958 9/1/1958,16/1/1958 17/1/1958,24/1/1958 25/1/1958,1/2/1958 2/2/1958,9/2/1958 10/2/1958,17/2/1958 18/2/1958,25/2/1958 26/2/1958,28/2/1958 
3/1958,4/1958 has 1/3/1958,8/3/1958 9/3/1958,16/3/1958 17/3/1958,24/3/1958 25/3/1958,1/4/1958 2/4/1958,9/4/1958 10/4/1958,17/4/1958 18/4/1958,25/4/1958 26/4/1958,30/4/1958 
5/1958,6/1958 has 1/5/1958,8/5/1958 9/5/1958,16/5/1958 17/5/1958,24/5/1958 25/5/1958,1/6/1958 2/6/1958,9/6/1958 10/6/1958,17/6/1958 18/6/1958,25/6/1958 26/6/1958,30/6/1958 
7/1958,8/1958 has 1/7/1958,8/7/1958 9/7/1958,16/7/1958 17/7/1958,24/7/1958 25/7/1958,1/8/1958 2/8/1958,9/8/1958 10/8/1958,17/8/1958 18/8/1958,25/8/1958 26/8/1958,31/8/1958 
9/1958,10/1958 has 1/9/1958,8/9/1958 9/9/1958,16/9/1958 17/9/1958,24/9/1958 25/9/1958,2/10/1958 3/10/1958,10/10/1958 11/10/1958,18/10/1958 19/10/1958,26/10/1958 27/10/1958,31/10/1958 
11/1958,12/1958 has 1/11/1958,8/11/1958 9/11/1958,16/11/1958 17/11/1958,24/11/1958 25/11/1958,2/12/1958 3/12/1958,10/12/1958 11/12/1958,18/12/1958 19/12/1958,26/12/1958 27/12/1958,31/12/1958 
1/1959,2/1959 has 1/1/1959,8/1/1959 9/1/1959,16/1/1959 17/1/1959,24/1/1959 25/1/1959,1/2/1959 2/2/1959,9/2/1959 10/2/1959,17/2/1959 18/2/1959,25/2/1959 26/2/1959,28/2/1959 
3/1959,4/1959 has 1/3/1959,8/3/1959 9/3/1959,16/3/1959 17/3/1959,24/3/1959 25/3/1959,1/4/1959 2/4/1959,9/4/1959 10/4/1959,17/4/1959 18/4/1959,25/4/1959 26/4/1959,30/4/1959 
5/1959,6/1959 has 1/5/1959,8/5/1959 9/5/1959,16/5/1959 17/5/1959,24/5/1959 25/5/1959,1/6/1959 2/6/1959,9/6/1959 10/6/1959,17/6/1959 18/6/1959,25/6/1959 26/6/1959,30/6/1959 
7/1959,8/1959 has 1/7/1959,8/7/1959 9/7/1959,16/7/1959 17/7/1959,24/7/1959 25/7/1959,1/8/1959 2/8/1959,9/8/1959 10/8/1959,17/8/1959 18/8/1959,25/8/1959 26/8/1959,31/8/1959 
9/1959,10/1959 has 1/9/1959,8/9/1959 9/9/1959,16/9/1959 17/9/1959,24/9/1959 25/9/1959,2/10/1959 3/10/1959,10/10/1959 11/10/1959,18/10/1959 19/10/1959,26/10/1959 27/10/1959,31/10/1959 
11/1959,12/1959 has 1/11/1959,8/11/1959 9/11/1959,16/11/1959 17/11/1959,24/11/1959 25/11/1959,2/12/1959 3/12/1959,10/12/1959 11/12/1959,18/12/1959 19/12/1959,26/12/1959 27/12/1959,31/12/1959 
1/1960,2/1960 has 1/1/1960,8/1/1960 9/1/1960,16/1/1960 17/1/1960,24/1/1960 25/1/1960,1/2/1960 2/2/1960,9/2/1960 10/2/1960,17/2/1960 18/2/1960,25/2/1960 26/2/1960,29/2/1960 
3/1960,4/1960 has 1/3/1960,8/3/1960 9/3/1960,16/3/1960 17/3/1960,24/3/1960 25/3/1960,1/4/1960 2/4/1960,9/4/1960 10/4/1960,17/4/1960 18/4/1960,25/4/1960 26/4/1960,30/4/1960 
5/1960,6/1960 has 1/5/1960,8/5/1960 9/5/1960,16/5/1960 17/5/1960,24/5/1960 25/5/1960,1/6/1960 2/6/1960,9/6/1960 10/6/1960,17/6/1960 18/6/1960,25/6/1960 26/6/1960,30/6/1960 
7/1960,8/1960 has 1/7/1960,8/7/1960 9/7/1960,16/7/1960 17/7/1960,24/7/1960 25/7/1960,1/8/1960 2/8/1960,9/8/1960 10/8/1960,17/8/1960 18/8/1960,25/8/1960 26/8/1960,31/8/1960 
9/1960,10/1960 has 1/9/1960,8/9/1960 9/9/1960,16/9/1960 17/9/1960,24/9/1960 25/9/1960,2/10/1960 3/10/1960,10/10/1960 11/10/1960,18/10/1960 19/10/1960,26/10/1960 27/10/1960,31/10/1960 
11/1960,12/1960 has 1/11/1960,8/11/1960 9/11/1960,16/11/1960 17/11/1960,24/11/1960 25/11/1960,2/12/1960 3/12/1960,10/12/1960 11/12/1960,18/12/1960 19/12/1960,26/12/1960 27/12/1960,31/12/1960 
1/1961,2/1961 has 1/1/1961,8/1/1961 9/1/1961,16/1/1961 17/1/1961,24/1/1961 25/1/1961,1/2/1961 2/2/1961,9/2/1961 10/2/1961,17/2/1961 18/2/1961,25/2/1961 26/2/1961,28/2/1961 
3/1961,4/1961 has 1/3/1961,8/3/1961 9/3/1961,16/3/1961 17/3/1961,24/3/1961 25/3/1961,1/4/1961 2/4/1961,9/4/1961 10/4/1961,17/4/1961 18/4/1961,25/4/1961 26/4/1961,30/4/1961 
5/1961,6/1961 has 1/5/1961,8/5/1961 9/5/1961,16/5/1961 17/5/1961,24/5/1961 25/5/1961,1/6/1961 2/6/1961,9/6/1961 10/6/1961,17/6/1961 18/6/1961,25/6/1961 26/6/1961,30/6/1961 
7/1961,8/1961 has 1/7/1961,8/7/1961 9/7/1961,16/7/1961 17/7/1961,24/7/1961 25/7/1961,1/8/1961 2/8/1961,9/8/1961 10/8/1961,17/8/1961 18/8/1961,25/8/1961 26/8/1961,31/8/1961 
9/1961,10/1961 has 1/9/1961,8/9/1961 9/9/1961,16/9/1961 17/9/1961,24/9/1961 25/9/1961,2/10/1961 3/10/1961,10/10/1961 11/10/1961,18/10/1961 19/10/1961,26/10/1961 27/10/1961,31/10/1961 
11/1961,12/1961 has 1/11/1961,8/11/1961 9/11/1961,16/11/1961 17/11/1961,24/11/1961 25/11/1961,2/12/1961 3/12/1961,10/12/1961 11/12/1961,18/12/1961 19/12/1961,26/12/1961 27/12/1961,31/12/1961 
1/1962,2/1962 has 1/1/1962,8/1/1962 9/1/1962,16/1/1962 17/1/1962,24/1/1962 25/1/1962,1/2/1962 2/2/1962,9/2/1962 10/2/1962,17/2/1962 18/2/1962,25/2/1962 26/2/1962,28/2/1962 
3/1962,4/1962 has 1/3/1962,8/3/1962 9/3/1962,16/3/1962 17/3/1962,24/3/1962 25/3/1962,1/4/1962 2/4/1962,9/4/1962 10/4/1962,17/4/1962 18/4/1962,25/4/1962 26/4/1962,30/4/1962 
5/1962,6/1962 has 1/5/1962,8/5/1962 9/5/1962,16/5/1962 17/5/1962,24/5/1962 25/5/1962,1/6/1962 2/6/1962,9/6/1962 10/6/1962,17/6/1962 18/6/1962,25/6/1962 26/6/1962,30/6/1962 
7/1962,8/1962 has 1/7/1962,8/7/1962 9/7/1962,16/7/1962 17/7/1962,24/7/1962 25/7/1962,1/8/1962 2/8/1962,9/8/1962 10/8/1962,17/8/1962 18/8/1962,25/8/1962 26/8/1962,31/8/1962 
9/1962,10/1962 has 1/9/1962,8/9/1962 9/9/1962,16/9/1962 17/9/1962,24/9/1962 25/9/1962,2/10/1962 3/10/1962,10/10/1962 11/10/1962,18/10/1962 19/10/1962,26/10/1962 27/10/1962,31/10/1962 
11/1962,12/1962 has 1/11/1962,8/11/1962 9/11/1962,16/11/1962 17/11/1962,24/11/1962 25/11/1962,2/12/1962 3/12/1962,10/12/1962 11/12/1962,18/12/1962 19/12/1962,26/12/1962 27/12/1962,31/12/1962 
1/1963,2/1963 has 1/1/1963,8/1/1963 9/1/1963,16/1/1963 17/1/1963,24/1/1963 25/1/1963,1/2/1963 2/2/1963,9/2/1963 10/2/1963,17/2/1963 18/2/1963,25/2/1963 26/2/1963,28/2/1963 
3/1963,4/1963 has 1/3/1963,8/3/1963 9/3/1963,16/3/1963 17/3/1963,24/3/1963 25/3/1963,1/4/1963 2/4/1963,9/4/1963 10/4/1963,17/4/1963 18/4/1963,25/4/1963 26/4/1963,30/4/1963 
5/1963,6/1963 has 1/5/1963,8/5/1963 9/5/1963,16/5/1963 17/5/1963,24/5/1963 25/5/1963,1/6/1963 2/6/1963,9/6/1963 10/6/1963,17/6/1963 18/6/1963,25/6/1963 26/6/1963,30/6/1963 
7/1963,8/1963 has 1/7/1963,8/7/1963 9/7/1963,16/7/1963 17/7/1963,24/7/1963 25/7/1963,1/8/1963 2/8/1963,9/8/1963 10/8/1963,17/8/1963 18/8/1963,25/8/1963 26/8/1963,31/8/1963 
9/1963,10/1963 has 1/9/1963,8/9/1963 9/9/1963,16/9/1963 17/9/1963,24/9/1963 25/9/1963,2/10/1963 3/10/1963,10/10/1963 11/10/1963,18/10/1963 19/10/1963,26/10/1963 27/10/1963,31/10/1963 
11/1963,12/1963 has 1/11/1963,8/11/1963 9/11/1963,16/11/1963 17/11/1963,24/11/1963 25/11/1963,2/12/1963 3/12/1963,10/12/1963 11/12/1963,18/12/1963 19/12/1963,26/12/1963 27/12/1963,31/12/1963 
1/1964,2/1964 has 1/1/1964,8/1/1964 9/1/1964,16/1/1964 17/1/1964,24/1/1964 25/1/1964,1/2/1964 2/2/1964,9/2/1964 10/2/1964,17/2/1964 18/2/1964,25/2/1964 26/2/1964,29/2/1964 
3/1964,4/1964 has 1/3/1964,8/3/1964 9/3/1964,16/3/1964 17/3/1964,24/3/1964 25/3/1964,1/4/1964 2/4/1964,9/4/1964 10/4/1964,17/4/1964 18/4/1964,25/4/1964 26/4/1964,30/4/1964 
5/1964,6/1964 has 1/5/1964,8/5/1964 9/5/1964,16/5/1964 17/5/1964,24/5/1964 25/5/1964,1/6/1964 2/6/1964,9/6/1964 10/6/1964,17/6/1964 18/6/1964,25/6/1964 26/6/1964,30/6/1964 
7/1964,8/1964 has 1/7/1964,8/7/1964 9/7/1964,16/7/1964 17/7/1964,24/7/1964 25/7/1964,1/8/1964 2/8/1964,9/8/1964 10/8/1964,17/8/1964 18/8/1964,25/8/1964 26/8/1964,31/8/1964 
9/1964,10/1964 has 1/9/1964,8/9/1964 9/9/1964,16/9/1964 17/9/1964,24/9/1964 25/9/1964,2/10/1964 3/10/1964,10/10/1964 11/10/1964,18/10/1964 19/10/1964,26/10/1964 27/10/1964,31/10/1964 
11/1964,12/1964 has 1/11/1964,8/11/1964 9/11/1964,16/11/1964 17/11/1964,24/11/1964 25/11/1964,2/12/1964 3/12/1964,10/12/1964 11/12/1964,18/12/1964 19/12/1964,26/12/1964 27/12/1964,31/12/1964 
1/1965,2/1965 has 1/1/1965,8/1/1965 9/1/1965,16/1/1965 17/1/1965,24/1/1965 25/1/1965,1/2/1965 2/2/1965,9/2/1965 10/2/1965,17/2/1965 18/2/1965,25/2/1965 26/2/1965,28/2/1965 
3/1965,4/1965 has 1/3/1965,8/3/1965 9/3/1965,16/3/1965 17/3/1965,24/3/1965 25/3/1965,1/4/1965 2/4/1965,9/4/1965 10/4/1965,17/4/1965 18/4/1965,25/4/1965 26/4/1965,30/4/1965 
5/1965,6/1965 has 1/5/1965,8/5/1965 9/5/1965,16/5/1965 17/5/1965,24/5/1965 25/5/1965,1/6/1965 2/6/1965,9/6/1965 10/6/1965,17/6/1965 18/6/1965,25/6/1965 26/6/1965,30/6/1965 
7/1965,8/1965 has 1/7/1965,8/7/1965 9/7/1965,16/7/1965 17/7/1965,24/7/1965 25/7/1965,1/8/1965 2/8/1965,9/8/1965 10/8/1965,17/8/1965 18/8/1965,25/8/1965 26/8/1965,31/8/1965 
9/1965,10/1965 has 1/9/1965,8/9/1965 9/9/1965,16/9/1965 17/9/1965,24/9/1965 25/9/1965,2/10/1965 3/10/1965,10/10/1965 11/10/1965,18/10/1965 19/10/1965,26/10/1965 27/10/1965,31/10/1965 
11/1965,12/1965 has 1/11/1965,8/11/1965 9/11/1965,16/11/1965 17/11/1965,24/11/1965 25/11/1965,2/12/1965 3/12/1965,10/12/1965 11/12/1965,18/12/1965 19/12/1965,26/12/1965 27/12/1965,31/12/1965 
1/1966,2/1966 has 1/1/1966,8/1/1966 9/1/1966,16/1/1966 17/1/1966,24/1/1966 25/1/1966,1/2/1966 2/2/1966,9/2/1966 10/2/1966,17/2/1966 18/2/1966,25/2/1966 26/2/1966,28/2/1966 
3/1966,4/1966 has 1/3/1966,8/3/1966 9/3/1966,16/3/1966 17/3/1966,24/3/1966 25/3/1966,1/4/1966 2/4/1966,9/4/1966 10/4/1966,17/4/1966 18/4/1966,25/4/1966 26/4/1966,30/4/1966 
5/1966,6/1966 has 1/5/1966,8/5/1966 9/5/1966,16/5/1966 17/5/1966,24/5/1966 25/5/1966,1/6/1966 2/6/1966,9/6/1966 10/6/1966,17/6/1966 18/6/1966,25/6/1966 26/6/1966,30/6/1966 
7/1966,8/1966 has 1/7/1966,8/7/1966 9/7/1966,16/7/1966 17/7/1966,24/7/1966 25/7/1966,1/8/1966 2/8/1966,9/8/1966 10/8/1966,17/8/1966 18/8/1966,25/8/1966 26/8/1966,31/8/1966 
9/1966,10/1966 has 1/9/1966,8/9/1966 9/9/1966,16/9/1966 17/9/1966,24/9/1966 25/9/1966,2/10/1966 3/10/1966,10/10/1966 11/10/1966,18/10/1966 19/10/1966,26/10/1966 27/10/1966,31/10/1966 
11/1966,12/1966 has 1/11/1966,8/11/1966 9/11/1966,16/11/1966 17/11/1966,24/11/1966 25/11/1966,2/12/1966 3/12/1966,10/12/1966 11/12/1966,18/12/1966 19/12/1966,26/12/1966 27/12/1966,31/12/1966 
1/1967,2/1967 has 1/1/1967,8/1/1967 9/1/1967,16/1/1967 17/1/1967,24/1/1967 25/1/1967,1/2/1967 2/2/1967,9/2/1967 10/2/1967,17/2/1967 18/2/1967,25/2/1967 26/2/1967,28/2/1967 
3/1967,4/1967 has 1/3/1967,8/3/1967 9/3/1967,16/3/1967 17/3/1967,24/3/1967 25/3/1967,1/4/1967 2/4/1967,9/4/1967 10/4/1967,17/4/1967 18/4/1967,25/4/1967 26/4/1967,30/4/1967 
5/1967,6/1967 has 1/5/1967,8/5/1967 9/5/1967,16/5/1967 17/5/1967,24/5/1967 25/5/1967,1/6/1967 2/6/1967,9/6/1967 10/6/1967,17/6/1967 18/6/1967,25/6/1967 26/6/1967,30/6/1967 
7/1967,8/1967 has 1/7/1967,8/7/1967 9/7/1967,16/7/1967 17/7/1967,24/7/1967 25/7/1967,1/8/1967 2/8/1967,9/8/1967 10/8/1967,17/8/1967 18/8/1967,25/8/1967 26/8/1967,31/8/1967 
9/1967,10/1967 has 1/9/1967,8/9/1967 9/9/1967,16/9/1967 17/9/1967,24/9/1967 25/9/1967,2/10/1967 3/10/1967,10/10/1967 11/10/1967,18/10/1967 19/10/1967,26/10/1967 27/10/1967,31/10/1967 
11/1967,12/1967 has 1/11/1967,8/11/1967 9/11/1967,16/11/1967 17/11/1967,24/11/1967 25/11/1967,2/12/1967 3/12/1967,10/12/1967 11/12/1967,18/12/1967 19/12/1967,26/12/1967 27/12/1967,31/12/1967 
1/1968,2/1968 has 1/1/1968,8/1/1968 9/1/1968,16/1/1968 17/1/1968,24/1/1968 25/1/1968,1/2/1968 2/2/1968,9/2/1968 10/2/1968,17/2/1968 18/2/1968,25/2/1968 26/2/1968,29/2/1968 
3/1968,4/1968 has 1/3/1968,8/3/1968 9/3/1968,16/3/1968 17/3/1968,24/3/1968 25/3/1968,1/4/1968 2/4/1968,9/4/1968 10/4/1968,17/4/1968 18/4/1968,25/4/1968 26/4/1968,30/4/1968 
5/1968,6/1968 has 1/5/1968,8/5/1968 9/5/1968,16/5/1968 17/5/1968,24/5/1968 25/5/1968,1/6/1968 2/6/1968,9/6/1968 10/6/1968,17/6/1968 18/6/1968,25/6/1968 26/6/1968,30/6/1968 
7/1968,8/1968 has 1/7/1968,8/7/1968 9/7/1968,16/7/1968 17/7/1968,24/7/1968 25/7/1968,1/8/1968 2/8/1968,9/8/1968 10/8/1968,17/8/1968 18/8/1968,25/8/1968 26/8/1968,31/8/1968 
9/1968,10/1968 has 1/9/1968,8/9/1968 9/9/1968,16/9/1968 17/9/1968,24/9/1968 25/9/1968,2/10/1968 3/10/1968,10/10/1968 11/10/1968,18/10/1968 19/10/1968,26/10/1968 27/10/1968,31/10/1968 
11/1968,12/1968 has 1/11/1968,8/11/1968 9/11/1968,16/11/1968 17/11/1968,24/11/1968 25/11/1968,2/12/1968 3/12/1968,10/12/1968 11/12/1968,18/12/1968 19/12/1968,26/12/1968 27/12/1968,31/12/1968 
1/1969,2/1969 has 1/1/1969,8/1/1969 9/1/1969,16/1/1969 17/1/1969,24/1/1969 25/1/1969,1/2/1969 2/2/1969,9/2/1969 10/2/1969,17/2/1969 18/2/1969,25/2/1969 26/2/1969,28/2/1969 
3/1969,4/1969 has 1/3/1969,8/3/1969 9/3/1969,16/3/1969 17/3/1969,24/3/1969 25/3/1969,1/4/1969 2/4/1969,9/4/1969 10/4/1969,17/4/1969 18/4/1969,25/4/1969 26/4/1969,30/4/1969 
5/1969,6/1969 has 1/5/1969,8/5/1969 9/5/1969,16/5/1969 17/5/1969,24/5/1969 25/5/1969,1/6/1969 2/6/1969,9/6/1969 10/6/1969,17/6/1969 18/6/1969,25/6/1969 26/6/1969,30/6/1969 
7/1969,8/1969 has 1/7/1969,8/7/1969 9/7/1969,16/7/1969 17/7/1969,24/7/1969 25/7/1969,1/8/1969 2/8/1969,9/8/1969 10/8/1969,17/8/1969 18/8/1969,25/8/1969 26/8/1969,31/8/1969 
9/1969,10/1969 has 1/9/1969,8/9/1969 9/9/1969,16/9/1969 17/9/1969,24/9/1969 25/9/1969,2/10/1969 3/10/1969,10/10/1969 11/10/1969,18/10/1969 19/10/1969,26/10/1969 27/10/1969,31/10/1969 
11/1969,12/1969 has 1/11/1969,8/11/1969 9/11/1969,16/11/1969 17/11/1969,24/11/1969 25/11/1969,2/12/1969 3/12/1969,10/12/1969 11/12/1969,18/12/1969 19/12/1969,26/12/1969 27/12/1969,31/12/1969 
1/1970,2/1970 has 1/1/1970,8/1/1970 9/1/1970,16/1/1970 17/1/1970,24/1/1970 25/1/1970,1/2/1970 2/2/1970,9/2/1970 10/2/1970,17/2/1970 18/2/1970,25/2/1970 26/2/1970,28/2/1970 
3/1970,4/1970 has 1/3/1970,8/3/1970 9/3/1970,16/3/1970 17/3/1970,24/3/1970 25/3/1970,1/4/1970 2/4/1970,9/4/1970 10/4/1970,17/4/1970 18/4/1970,25/4/1970 26/4/1970,30/4/1970 
5/1970,6/1970 has 1/5/1970,8/5/1970 9/5/1970,16/5/1970 17/5/1970,24/5/1970 25/5/1970,1/6/1970 2/6/1970,9/6/1970 10/6/1970,17/6/1970 18/6/1970,25/6/1970 26/6/1970,30/6/1970 
7/1970,8/1970 has 1/7/1970,8/7/1970 9/7/1970,16/7/1970 17/7/1970,24/7/1970 25/7/1970,1/8/1970 2/8/1970,9/8/1970 10/8/1970,17/8/1970 18/8/1970,25/8/1970 26/8/1970,31/8/1970 
9/1970,10/1970 has 1/9/1970,8/9/1970 9/9/1970,16/9/1970 17/9/1970,24/9/1970 25/9/1970,2/10/1970 3/10/1970,10/10/1970 11/10/1970,18/10/1970 19/10/1970,26/10/1970 27/10/1970,31/10/1970 
11/1970,12/1970 has 1/11/1970,8/11/1970 9/11/1970,16/11/1970 17/11/1970,24/11/1970 25/11/1970,2/12/1970 3/12/1970,10/12/1970 11/12/1970,18/12/1970 19/12/1970,26/12/1970 27/12/1970,31/12/1970 
1/1971,2/1971 has 1/1/1971,8/1/1971 9/1/1971,16/1/1971 17/1/1971,24/1/1971 25/1/1971,1/2/1971 2/2/1971,9/2/1971 10/2/1971,17/2/1971 18/2/1971,25/2/1971 26/2/1971,28/2/1971 
3/1971,4/1971 has 1/3/1971,8/3/1971 9/3/1971,16/3/1971 17/3/1971,24/3/1971 25/3/1971,1/4/1971 2/4/1971,9/4/1971 10/4/1971,17/4/1971 18/4/1971,25/4/1971 26/4/1971,30/4/1971 
5/1971,6/1971 has 1/5/1971,8/5/1971 9/5/1971,16/5/1971 17/5/1971,24/5/1971 25/5/1971,1/6/1971 2/6/1971,9/6/1971 10/6/1971,17/6/1971 18/6/1971,25/6/1971 26/6/1971,30/6/1971 
7/1971,8/1971 has 1/7/1971,8/7/1971 9/7/1971,16/7/1971 17/7/1971,24/7/1971 25/7/1971,1/8/1971 2/8/1971,9/8/1971 10/8/1971,17/8/1971 18/8/1971,25/8/1971 26/8/1971,31/8/1971 
9/1971,10/1971 has 1/9/1971,8/9/1971 9/9/1971,16/9/1971 17/9/1971,24/9/1971 25/9/1971,2/10/1971 3/10/1971,10/10/1971 11/10/1971,18/10/1971 19/10/1971,26/10/1971 27/10/1971,31/10/1971 
11/1971,12/1971 has 1/11/1971,8/11/1971 9/11/1971,16/11/1971 17/11/1971,24/11/1971 25/11/1971,2/12/1971 3/12/1971,10/12/1971 11/12/1971,18/12/1971 19/12/1971,26/12/1971 27/12/1971,31/12/1971 
1/1972,2/1972 has 1/1/1972,8/1/1972 9/1/1972,16/1/1972 17/1/1972,24/1/1972 25/1/1972,1/2/1972 2/2/1972,9/2/1972 10/2/1972,17/2/1972 18/2/1972,25/2/1972 26/2/1972,29/2/1972 
3/1972,4/1972 has 1/3/1972,8/3/1972 9/3/1972,16/3/1972 17/3/1972,24/3/1972 25/3/1972,1/4/1972 2/4/1972,9/4/1972 10/4/1972,17/4/1972 18/4/1972,25/4/1972 26/4/1972,30/4/1972 
5/1972,6/1972 has 1/5/1972,8/5/1972 9/5/1972,16/5/1972 17/5/1972,24/5/1972 25/5/1972,1/6/1972 2/6/1972,9/6/1972 10/6/1972,17/6/1972 18/6/1972,25/6/1972 26/6/1972,30/6/1972 
7/1972,8/1972 has 1/7/1972,8/7/1972 9/7/1972,16/7/1972 17/7/1972,24/7/1972 25/7/1972,1/8/1972 2/8/1972,9/8/1972 10/8/1972,17/8/1972 18/8/1972,25/8/1972 26/8/1972,31/8/1972 
9/1972,10/1972 has 1/9/1972,8/9/1972 9/9/1972,16/9/1972 17/9/1972,24/9/1972 25/9/1972,2/10/1972 3/10/1972,10/10/1972 11/10/1972,18/10/1972 19/10/1972,26/10/1972 27/10/1972,31/10/1972 
11/1972,12/1972 has 1/11/1972,8/11/1972 9/11/1972,16/11/1972 17/11/1972,24/11/1972 25/11/1972,2/12/1972 3/12/1972,10/12/1972 11/12/1972,18/12/1972 19/12/1972,26/12/1972 27/12/1972,31/12/1972 
1/1973,2/1973 has 1/1/1973,8/1/1973 9/1/1973,16/1/1973 17/1/1973,24/1/1973 25/1/1973,1/2/1973 2/2/1973,9/2/1973 10/2/1973,17/2/1973 18/2/1973,25/2/1973 26/2/1973,28/2/1973 
3/1973,4/1973 has 1/3/1973,8/3/1973 9/3/1973,16/3/1973 17/3/1973,24/3/1973 25/3/1973,1/4/1973 2/4/1973,9/4/1973 10/4/1973,17/4/1973 18/4/1973,25/4/1973 26/4/1973,30/4/1973 
5/1973,6/1973 has 1/5/1973,8/5/1973 9/5/1973,16/5/1973 17/5/1973,24/5/1973 25/5/1973,1/6/1973 2/6/1973,9/6/1973 10/6/1973,17/6/1973 18/6/1973,25/6/1973 26/6/1973,30/6/1973 
7/1973,8/1973 has 1/7/1973,8/7/1973 9/7/1973,16/7/1973 17/7/1973,24/7/1973 25/7/1973,1/8/1973 2/8/1973,9/8/1973 10/8/1973,17/8/1973 18/8/1973,25/8/1973 26/8/1973,31/8/1973 
9/1973,10/1973 has 1/9/1973,8/9/1973 9/9/1973,16/9/1973 17/9/1973,24/9/1973 25/9/1973,2/10/1973 3/10/1973,10/10/1973 11/10/1973,18/10/1973 19/10/1973,26/10/1973 27/10/1973,31/10/1973 
11/1973,12/1973 has 1/11/1973,8/11/1973 9/11/1973,16/11/1973 17/11/1973,24/11/1973 25/11/1973,2/12/1973 3/12/1973,10/12/1973 11/12/1973,18/12/1973 19/12/1973,26/12/1973 27/12/1973,31/12/1973 
1/1974,2/1974 has 1/1/1974,8/1/1974 9/1/1974,16/1/1974 17/1/1974,24/1/1974 25/1/1974,1/2/1974 2/2/1974,9/2/1974 10/2/1974,17/2/1974 18/2/1974,25/2/1974 26/2/1974,28/2/1974 
3/1974,4/1974 has 1/3/1974,8/3/1974 9/3/1974,16/3/1974 17/3/1974,24/3/1974 25/3/1974,1/4/1974 2/4/1974,9/4/1974 10/4/1974,17/4/1974 18/4/1974,25/4/1974 26/4/1974,30/4/1974 
5/1974,6/1974 has 1/5/1974,8/5/1974 9/5/1974,16/5/1974 17/5/1974,24/5/1974 25/5/1974,1/6/1974 2/6/1974,9/6/1974 10/6/1974,17/6/1974 18/6/1974,25/6/1974 26/6/1974,30/6/1974 
7/1974,8/1974 has 1/7/1974,8/7/1974 9/7/1974,16/7/1974 17/7/1974,24/7/1974 25/7/1974,1/8/1974 2/8/1974,9/8/1974 10/8/1974,17/8/1974 18/8/1974,25/8/1974 26/8/1974,31/8/1974 
9/1974,10/1974 has 1/9/1974,8/9/1974 9/9/1974,16/9/1974 17/9/1974,24/9/1974 25/9/1974,2/10/1974 3/10/1974,10/10/1974 11/10/1974,18/10/1974 19/10/1974,26/10/1974 27/10/1974,31/10/1974 
11/1974,12/1974 has 1/11/1974,8/11/1974 9/11/1974,16/11/1974 17/11/1974,24/11/1974 25/11/1974,2/12/1974 3/12/1974,10/12/1974 11/12/1974,18/12/1974 19/12/1974,26/12/1974 27/12/1974,31/12/1974 
1/1975,2/1975 has 1/1/1975,8/1/1975 9/1/1975,16/1/1975 17/1/1975,24/1/1975 25/1/1975,1/2/1975 2/2/1975,9/2/1975 10/2/1975,17/2/1975 18/2/1975,25/2/1975 26/2/1975,28/2/1975 
3/1975,4/1975 has 1/3/1975,8/3/1975 9/3/1975,16/3/1975 17/3/1975,24/3/1975 25/3/1975,1/4/1975 2/4/1975,9/4/1975 10/4/1975,17/4/1975 18/4/1975,25/4/1975 26/4/1975,30/4/1975 
5/1975,6/1975 has 1/5/1975,8/5/1975 9/5/1975,16/5/1975 17/5/1975,24/5/1975 25/5/1975,1/6/1975 2/6/1975,9/6/1975 10/6/1975,17/6/1975 18/6/1975,25/6/1975 26/6/1975,30/6/1975 
7/1975,8/1975 has 1/7/1975,8/7/1975 9/7/1975,16/7/1975 17/7/1975,24/7/1975 25/7/1975,1/8/1975 2/8/1975,9/8/1975 10/8/1975,17/8/1975 18/8/1975,25/8/1975 26/8/1975,31/8/1975 
9/1975,10/1975 has 1/9/1975,8/9/1975 9/9/1975,16/9/1975 17/9/1975,24/9/1975 25/9/1975,2/10/1975 3/10/1975,10/10/1975 11/10/1975,18/10/1975 19/10/1975,26/10/1975 27/10/1975,31/10/1975 
11/1975,12/1975 has 1/11/1975,8/11/1975 9/11/1975,16/11/1975 17/11/1975,24/11/1975 25/11/1975,2/12/1975 3/12/1975,10/12/1975 11/12/1975,18/12/1975 19/12/1975,26/12/1975 27/12/1975,31/12/1975 
1/1976,2/1976 has 1/1/1976,8/1/1976 9/1/1976,16/1/1976 17/1/1976,24/1/1976 25/1/1976,1/2/1976 2/2/1976,9/2/1976 10/2/1976,17/2/1976 18/2/1976,25/2/1976 26/2/1976,29/2/1976 
3/1976,4/1976 has 1/3/1976,8/3/1976 9/3/1976,16/3/1976 17/3/1976,24/3/1976 25/3/1976,1/4/1976 2/4/1976,9/4/1976 10/4/1976,17/4/1976 18/4/1976,25/4/1976 26/4/1976,30/4/1976 
5/1976,6/1976 has 1/5/1976,8/5/1976 9/5/1976,16/5/1976 17/5/1976,24/5/1976 25/5/1976,1/6/1976 2/6/1976,9/6/1976 10/6/1976,17/6/1976 18/6/1976,25/6/1976 26/6/1976,30/6/1976 
7/1976,8/1976 has 1/7/1976,8/7/1976 9/7/1976,16/7/1976 17/7/1976,24/7/1976 25/7/1976,1/8/1976 2/8/1976,9/8/1976 10/8/1976,17/8/1976 18/8/1976,25/8/1976 26/8/1976,31/8/1976 
9/1976,10/1976 has 1/9/1976,8/9/1976 9/9/1976,16/9/1976 17/9/1976,24/9/1976 25/9/1976,2/10/1976 3/10/1976,10/10/1976 11/10/1976,18/10/1976 19/10/1976,26/10/1976 27/10/1976,31/10/1976 
11/1976,12/1976 has 1/11/1976,8/11/1976 9/11/1976,16/11/1976 17/11/1976,24/11/1976 25/11/1976,2/12/1976 3/12/1976,10/12/1976 11/12/1976,18/12/1976 19/12/1976,26/12/1976 27/12/1976,31/12/1976 
1/1977,2/1977 has 1/1/1977,8/1/1977 9/1/1977,16/1/1977 17/1/1977,24/1/1977 25/1/1977,1/2/1977 2/2/1977,9/2/1977 10/2/1977,17/2/1977 18/2/1977,25/2/1977 26/2/1977,28/2/1977 
3/1977,4/1977 has 1/3/1977,8/3/1977 9/3/1977,16/3/1977 17/3/1977,24/3/1977 25/3/1977,1/4/1977 2/4/1977,9/4/1977 10/4/1977,17/4/1977 18/4/1977,25/4/1977 26/4/1977,30/4/1977 
5/1977,6/1977 has 1/5/1977,8/5/1977 9/5/1977,16/5/1977 17/5/1977,24/5/1977 25/5/1977,1/6/1977 2/6/1977,9/6/1977 10/6/1977,17/6/1977 18/6/1977,25/6/1977 26/6/1977,30/6/1977 
7/1977,8/1977 has 1/7/1977,8/7/1977 9/7/1977,16/7/1977 17/7/1977,24/7/1977 25/7/1977,1/8/1977 2/8/1977,9/8/1977 10/8/1977,17/8/1977 18/8/1977,25/8/1977 26/8/1977,31/8/1977 
9/1977,10/1977 has 1/9/1977,8/9/1977 9/9/1977,16/9/1977 17/9/1977,24/9/1977 25/9/1977,2/10/1977 3/10/1977,10/10/1977 11/10/1977,18/10/1977 19/10/1977,26/10/1977 27/10/1977,31/10/1977 
11/1977,12/1977 has 1/11/1977,8/11/1977 9/11/1977,16/11/1977 17/11/1977,24/11/1977 25/11/1977,2/12/1977 3/12/1977,10/12/1977 11/12/1977,18/12/1977 19/12/1977,26/12/1977 27/12/1977,31/12/1977 
1/1978,2/1978 has 1/1/1978,8/1/1978 9/1/1978,16/1/1978 17/1/1978,24/1/1978 25/1/1978,1/2/1978 2/2/1978,9/2/1978 10/2/1978,17/2/1978 18/2/1978,25/2/1978 26/2/1978,28/2/1978 
3/1978,4/1978 has 1/3/1978,8/3/1978 9/3/1978,16/3/1978 17/3/1978,24/3/1978 25/3/1978,1/4/1978 2/4/1978,9/4/1978 10/4/1978,17/4/1978 18/4/1978,25/4/1978 26/4/1978,30/4/1978 
5/1978,6/1978 has 1/5/1978,8/5/1978 9/5/1978,16/5/1978 17/5/1978,24/5/1978 25/5/1978,1/6/1978 2/6/1978,9/6/1978 10/6/1978,17/6/1978 18/6/1978,25/6/1978 26/6/1978,30/6/1978 
7/1978,8/1978 has 1/7/1978,8/7/1978 9/7/1978,16/7/1978 17/7/1978,24/7/1978 25/7/1978,1/8/1978 2/8/1978,9/8/1978 10/8/1978,17/8/1978 18/8/1978,25/8/1978 26/8/1978,31/8/1978 
9/1978,10/1978 has 1/9/1978,8/9/1978 9/9/1978,16/9/1978 17/9/1978,24/9/1978 25/9/1978,2/10/1978 3/10/1978,10/10/1978 11/10/1978,18/10/1978 19/10/1978,26/10/1978 27/10/1978,31/10/1978 
11/1978,12/1978 has 1/11/1978,8/11/1978 9/11/1978,16/11/1978 17/11/1978,24/11/1978 25/11/1978,2/12/1978 3/12/1978,10/12/1978 11/12/1978,18/12/1978 19/12/1978,26/12/1978 27/12/1978,31/12/1978 
1/1979,2/1979 has 1/1/1979,8/1/1979 9/1/1979,16/1/1979 17/1/1979,24/1/1979 25/1/1979,1/2/1979 2/2/1979,9/2/1979 10/2/1979,17/2/1979 18/2/1979,25/2/1979 26/2/1979,28/2/1979 
3/1979,4/1979 has 1/3/1979,8/3/1979 9/3/1979,16/3/1979 17/3/1979,24/3/1979 25/3/1979,1/4/1979 2/4/1979,9/4/1979 10/4/1979,17/4/1979 18/4/1979,25/4/1979 26/4/1979,30/4/1979 
5/1979,6/1979 has 1/5/1979,8/5/1979 9/5/1979,16/5/1979 17/5/1979,24/5/1979 25/5/1979,1/6/1979 2/6/1979,9/6/1979 10/6/1979,17/6/1979 18/6/1979,25/6/1979 26/6/1979,30/6/1979 
7/1979,8/1979 has 1/7/1979,8/7/1979 9/7/1979,16/7/1979 17/7/1979,24/7/1979 25/7/1979,1/8/1979 2/8/1979,9/8/1979 10/8/1979,17/8/1979 18/8/1979,25/8/1979 26/8/1979,31/8/1979 
9/1979,10/1979 has 1/9/1979,8/9/1979 9/9/1979,16/9/1979 17/9/1979,24/9/1979 25/9/1979,2/10/1979 3/10/1979,10/10/1979 11/10/1979,18/10/1979 19/10/1979,26/10/1979 27/10/1979,31/10/1979 
11/1979,12/1979 has 1/11/1979,8/11/1979 9/11/1979,16/11/1979 17/11/1979,24/11/1979 25/11/1979,2/12/1979 3/12/1979,10/12/1979 11/12/1979,18/12/1979 19/12/1979,26/12/1979 27/12/1979,31/12/1979 
1/1980,2/1980 has 1/1/1980,8/1/1980 9/1/1980,16/1/1980 17/1/1980,24/1/1980 25/1/1980,1/2/1980 2/2/1980,9/2/1980 10/2/1980,17/2/1980 18/2/1980,25/2/1980 26/2/1980,29/2/1980 
3/1980,4/1980 has 1/3/1980,8/3/1980 9/3/1980,16/3/1980 17/3/1980,24/3/1980 25/3/1980,1/4/1980 2/4/1980,9/4/1980 10/4/1980,17/4/1980 18/4/1980,25/4/1980 26/4/1980,30/4/1980 
5/1980,6/1980 has 1/5/1980,8/5/1980 9/5/1980,16/5/1980 17/5/1980,24/5/1980 25/5/1980,1/6/1980 2/6/1980,9/6/1980 10/6/1980,17/6/1980 18/6/1980,25/6/1980 26/6/1980,30/6/1980 
7/1980,8/1980 has 1/7/1980,8/7/1980 9/7/1980,16/7/1980 17/7/1980,24/7/1980 25/7/1980,1/8/1980 2/8/1980,9/8/1980 10/8/1980,17/8/1980 18/8/1980,25/8/1980 26/8/1980,31/8/1980 
9/1980,10/1980 has 1/9/1980,8/9/1980 9/9/1980,16/9/1980 17/9/1980,24/9/1980 25/9/1980,2/10/1980 3/10/1980,10/10/1980 11/10/1980,18/10/1980 19/10/1980,26/10/1980 27/10/1980,31/10/1980 
11/1980,12/1980 has 1/11/1980,8/11/1980 9/11/1980,16/11/1980 17/11/1980,24/11/1980 25/11/1980,2/12/1980 3/12/1980,10/12/1980 11/12/1980,18/12/1980 19/12/1980,26/12/1980 27/12/1980,31/12/1980 
1/1981,2/1981 has 1/1/1981,8/1/1981 9/1/1981,16/1/1981 17/1/1981,24/1/1981 25/1/1981,1/2/1981 2/2/1981,9/2/1981 10/2/1981,17/2/1981 18/2/1981,25/2/1981 26/2/1981,28/2/1981 
3/1981,4/1981 has 1/3/1981,8/3/1981 9/3/1981,16/3/1981 17/3/1981,24/3/1981 25/3/1981,1/4/1981 2/4/1981,9/4/1981 10/4/1981,17/4/1981 18/4/1981,25/4/1981 26/4/1981,30/4/1981 
5/1981,6/1981 has 1/5/1981,8/5/1981 9/5/1981,16/5/1981 17/5/1981,24/5/1981 25/5/1981,1/6/1981 2/6/1981,9/6/1981 10/6/1981,17/6/1981 18/6/1981,25/6/1981 26/6/1981,30/6/1981 
7/1981,8/1981 has 1/7/1981,8/7/1981 9/7/1981,16/7/1981 17/7/1981,24/7/1981 25/7/1981,1/8/1981 2/8/1981,9/8/1981 10/8/1981,17/8/1981 18/8/1981,25/8/1981 26/8/1981,31/8/1981 
9/1981,10/1981 has 1/9/1981,8/9/1981 9/9/1981,16/9/1981 17/9/1981,24/9/1981 25/9/1981,2/10/1981 3/10/1981,10/10/1981 11/10/1981,18/10/1981 19/10/1981,26/10/1981 27/10/1981,31/10/1981 
11/1981,12/1981 has 1/11/1981,8/11/1981 9/11/1981,16/11/1981 17/11/1981,24/11/1981 25/11/1981,2/12/1981 3/12/1981,10/12/1981 11/12/1981,18/12/1981 19/12/1981,26/12/1981 27/12/1981,31/12/1981 
1/1982,2/1982 has 1/1/1982,8/1/1982 9/1/1982,16/1/1982 17/1/1982,24/1/1982 25/1/1982,1/2/1982 2/2/1982,9/2/1982 10/2/1982,17/2/1982 18/2/1982,25/2/1982 26/2/1982,28/2/1982 
3/1982,4/1982 has 1/3/1982,8/3/1982 9/3/1982,16/3/1982 17/3/1982,24/3/1982 25/3/1982,1/4/1982 2/4/1982,9/4/1982 10/4/1982,17/4/1982 18/4/1982,25/4/1982 26/4/1982,30/4/1982 
5/1982,6/1982 has 1/5/1982,8/5/1982 9/5/1982,16/5/1982 17/5/1982,24/5/1982 25/5/1982,1/6/1982 2/6/1982,9/6/1982 10/6/1982,17/6/1982 18/6/1982,25/6/1982 26/6/1982,30/6/1982 
7/1982,8/1982 has 1/7/1982,8/7/1982 9/7/1982,16/7/1982 17/7/1982,24/7/1982 25/7/1982,1/8/1982 2/8/1982,9/8/1982 10/8/1982,17/8/1982 18/8/1982,25/8/1982 26/8/1982,31/8/1982 
9/1982,10/1982 has 1/9/1982,8/9/1982 9/9/1982,16/9/1982 17/9/1982,24/9/1982 25/9/1982,2/10/1982 3/10/1982,10/10/1982 11/10/1982,18/10/1982 19/10/1982,26/10/1982 27/10/1982,31/10/1982 
11/1982,12/1982 has 1/11/1982,8/11/1982 9/11/1982,16/11/1982 17/11/1982,24/11/1982 25/11/1982,2/12/1982 3/12/1982,10/12/1982 11/12/1982,18/12/1982 19/12/1982,26/12/1982 27/12/1982,31/12/1982 
1/1983,2/1983 has 1/1/1983,8/1/1983 9/1/1983,16/1/1983 17/1/1983,24/1/1983 25/1/1983,1/2/1983 2/2/1983,9/2/1983 10/2/1983,17/2/1983 18/2/1983,25/2/1983 26/2/1983,28/2/1983 
3/1983,4/1983 has 1/3/1983,8/3/1983 9/3/1983,16/3/1983 17/3/1983,24/3/1983 25/3/1983,1/4/1983 2/4/1983,9/4/1983 10/4/1983,17/4/1983 18/4/1983,25/4/1983 26/4/1983,30/4/1983 
5/1983,6/1983 has 1/5/1983,8/5/1983 9/5/1983,16/5/1983 17/5/1983,24/5/1983 25/5/1983,1/6/1983 2/6/1983,9/6/1983 10/6/1983,17/6/1983 18/6/1983,25/6/1983 26/6/1983,30/6/1983 
7/1983,8/1983 has 1/7/1983,8/7/1983 9/7/1983,16/7/1983 17/7/1983,24/7/1983 25/7/1983,1/8/1983 2/8/1983,9/8/1983 10/8/1983,17/8/1983 18/8/1983,25/8/1983 26/8/1983,31/8/1983 
9/1983,10/1983 has 1/9/1983,8/9/1983 9/9/1983,16/9/1983 17/9/1983,24/9/1983 25/9/1983,2/10/1983 3/10/1983,10/10/1983 11/10/1983,18/10/1983 19/10/1983,26/10/1983 27/10/1983,31/10/1983 
11/1983,12/1983 has 1/11/1983,8/11/1983 9/11/1983,16/11/1983 17/11/1983,24/11/1983 25/11/1983,2/12/1983 3/12/1983,10/12/1983 11/12/1983,18/12/1983 19/12/1983,26/12/1983 27/12/1983,31/12/1983 
1/1984,2/1984 has 1/1/1984,8/1/1984 9/1/1984,16/1/1984 17/1/1984,24/1/1984 25/1/1984,1/2/1984 2/2/1984,9/2/1984 10/2/1984,17/2/1984 18/2/1984,25/2/1984 26/2/1984,29/2/1984 
3/1984,4/1984 has 1/3/1984,8/3/1984 9/3/1984,16/3/1984 17/3/1984,24/3/1984 25/3/1984,1/4/1984 2/4/1984,9/4/1984 10/4/1984,17/4/1984 18/4/1984,25/4/1984 26/4/1984,30/4/1984 
5/1984,6/1984 has 1/5/1984,8/5/1984 9/5/1984,16/5/1984 17/5/1984,24/5/1984 25/5/1984,1/6/1984 2/6/1984,9/6/1984 10/6/1984,17/6/1984 18/6/1984,25/6/1984 26/6/1984,30/6/1984 
7/1984,8/1984 has 1/7/1984,8/7/1984 9/7/1984,16/7/1984 17/7/1984,24/7/1984 25/7/1984,1/8/1984 2/8/1984,9/8/1984 10/8/1984,17/8/1984 18/8/1984,25/8/1984 26/8/1984,31/8/1984 
9/1984,10/1984 has 1/9/1984,8/9/1984 9/9/1984,16/9/1984 17/9/1984,24/9/1984 25/9/1984,2/10/1984 3/10/1984,10/10/1984 11/10/1984,18/10/1984 19/10/1984,26/10/1984 27/10/1984,31/10/1984 
11/1984,12/1984 has 1/11/1984,8/11/1984 9/11/1984,16/11/1984 17/11/1984,24/11/1984 25/11/1984,2/12/1984 3/12/1984,10/12/1984 11/12/1984,18/12/1984 19/12/1984,26/12/1984 27/12/1984,31/12/1984 
1/1985,2/1985 has 1/1/1985,8/1/1985 9/1/1985,16/1/1985 17/1/1985,24/1/1985 25/1/1985,1/2/1985 2/2/1985,9/2/1985 10/2/1985,17/2/1985 18/2/1985,25/2/1985 26/2/1985,28/2/1985 
3/1985,4/1985 has 1/3/1985,8/3/1985 9/3/1985,16/3/1985 17/3/1985,24/3/1985 25/3/1985,1/4/1985 2/4/1985,9/4/1985 10/4/1985,17/4/1985 18/4/1985,25/4/1985 26/4/1985,30/4/1985 
5/1985,6/1985 has 1/5/1985,8/5/1985 9/5/1985,16/5/1985 17/5/1985,24/5/1985 25/5/1985,1/6/1985 2/6/1985,9/6/1985 10/6/1985,17/6/1985 18/6/1985,25/6/1985 26/6/1985,30/6/1985 
7/1985,8/1985 has 1/7/1985,8/7/1985 9/7/1985,16/7/1985 17/7/1985,24/7/1985 25/7/1985,1/8/1985 2/8/1985,9/8/1985 10/8/1985,17/8/1985 18/8/1985,25/8/1985 26/8/1985,31/8/1985 
9/1985,10/1985 has 1/9/1985,8/9/1985 9/9/1985,16/9/1985 17/9/1985,24/9/1985 25/9/1985,2/10/1985 3/10/1985,10/10/1985 11/10/1985,18/10/1985 19/10/1985,26/10/1985 27/10/1985,31/10/1985 
11/1985,12/1985 has 1/11/1985,8/11/1985 9/11/1985,16/11/1985 17/11/1985,24/11/1985 25/11/1985,2/12/1985 3/12/1985,10/12/1985 11/12/1985,18/12/1985 19/12/1985,26/12/1985 27/12/1985,31/12/1985 
1/1986,2/1986 has 1/1/1986,8/1/1986 9/1/1986,16/1/1986 17/1/1986,24/1/1986 25/1/1986,1/2/1986 2/2/1986,9/2/1986 10/2/1986,17/2/1986 18/2/1986,25/2/1986 26/2/1986,28/2/1986 
3/1986,4/1986 has 1/3/1986,8/3/1986 9/3/1986,16/3/1986 17/3/1986,24/3/1986 25/3/1986,1/4/1986 2/4/1986,9/4/1986 10/4/1986,17/4/1986 18/4/1986,25/4/1986 26/4/1986,30/4/1986 
5/1986,6/1986 has 1/5/1986,8/5/1986 9/5/1986,16/5/1986 17/5/1986,24/5/1986 25/5/1986,1/6/1986 2/6/1986,9/6/1986 10/6/1986,17/6/1986 18/6/1986,25/6/1986 26/6/1986,30/6/1986 
7/1986,8/1986 has 1/7/1986,8/7/1986 9/7/1986,16/7/1986 17/7/1986,24/7/1986 25/7/1986,1/8/1986 2/8/1986,9/8/1986 10/8/1986,17/8/1986 18/8/1986,25/8/1986 26/8/1986,31/8/1986 
9/1986,10/1986 has 1/9/1986,8/9/1986 9/9/1986,16/9/1986 17/9/1986,24/9/1986 25/9/1986,2/10/1986 3/10/1986,10/10/1986 11/10/1986,18/10/1986 19/10/1986,26/10/1986 27/10/1986,31/10/1986 
11/1986,12/1986 has 1/11/1986,8/11/1986 9/11/1986,16/11/1986 17/11/1986,24/11/1986 25/11/1986,2/12/1986 3/12/1986,10/12/1986 11/12/1986,18/12/1986 19/12/1986,26/12/1986 27/12/1986,31/12/1986 
1/1987,2/1987 has 1/1/1987,8/1/1987 9/1/1987,16/1/1987 17/1/1987,24/1/1987 25/1/1987,1/2/1987 2/2/1987,9/2/1987 10/2/1987,17/2/1987 18/2/1987,25/2/1987 26/2/1987,28/2/1987 
3/1987,4/1987 has 1/3/1987,8/3/1987 9/3/1987,16/3/1987 17/3/1987,24/3/1987 25/3/1987,1/4/1987 2/4/1987,9/4/1987 10/4/1987,17/4/1987 18/4/1987,25/4/1987 26/4/1987,30/4/1987 
5/1987,6/1987 has 1/5/1987,8/5/1987 9/5/1987,16/5/1987 17/5/1987,24/5/1987 25/5/1987,1/6/1987 2/6/1987,9/6/1987 10/6/1987,17/6/1987 18/6/1987,25/6/1987 26/6/1987,30/6/1987 
7/1987,8/1987 has 1/7/1987,8/7/1987 9/7/1987,16/7/1987 17/7/1987,24/7/1987 25/7/1987,1/8/1987 2/8/1987,9/8/1987 10/8/1987,17/8/1987 18/8/1987,25/8/1987 26/8/1987,31/8/1987 
9/1987,10/1987 has 1/9/1987,8/9/1987 9/9/1987,16/9/1987 17/9/1987,24/9/1987 25/9/1987,2/10/1987 3/10/1987,10/10/1987 11/10/1987,18/10/1987 19/10/1987,26/10/1987 27/10/1987,31/10/1987 
11/1987,12/1987 has 1/11/1987,8/11/1987 9/11/1987,16/11/1987 17/11/1987,24/11/1987 25/11/1987,2/12/1987 3/12/1987,10/12/1987 11/12/1987,18/12/1987 19/12/1987,26/12/1987 27/12/1987,31/12/1987 
1/1988,2/1988 has 1/1/1988,8/1/1988 9/1/1988,16/1/1988 17/1/1988,24/1/1988 25/1/1988,1/2/1988 2/2/1988,9/2/1988 10/2/1988,17/2/1988 18/2/1988,25/2/1988 26/2/1988,29/2/1988 
3/1988,4/1988 has 1/3/1988,8/3/1988 9/3/1988,16/3/1988 17/3/1988,24/3/1988 25/3/1988,1/4/1988 2/4/1988,9/4/1988 10/4/1988,17/4/1988 18/4/1988,25/4/1988 26/4/1988,30/4/1988 
5/1988,6/1988 has 1/5/1988,8/5/1988 9/5/1988,16/5/1988 17/5/1988,24/5/1988 25/5/1988,1/6/1988 2/6/1988,9/6/1988 10/6/1988,17/6/1988 18/6/1988,25/6/1988 26/6/1988,30/6/1988 
7/1988,8/1988 has 1/7/1988,8/7/1988 9/7/1988,16/7/1988 17/7/1988,24/7/1988 25/7/1988,1/8/1988 2/8/1988,9/8/1988 10/8/1988,17/8/1988 18/8/1988,25/8/1988 26/8/1988,31/8/1988 
9/1988,10/1988 has 1/9/1988,8/9/1988 9/9/1988,16/9/1988 17/9/1988,24/9/1988 25/9/1988,2/10/1988 3/10/1988,10/10/1988 11/10/1988,18/10/1988 19/10/1988,26/10/1988 27/10/1988,31/10/1988 
11/1988,12/1988 has 1/11/1988,8/11/1988 9/11/1988,16/11/1988 17/11/1988,24/11/1988 25/11/1988,2/12/1988 3/12/1988,10/12/1988 11/12/1988,18/12/1988 19/12/1988,26/12/1988 27/12/1988,31/12/1988 
1/1989,2/1989 has 1/1/1989,8/1/1989 9/1/1989,16/1/1989 17/1/1989,24/1/1989 25/1/1989,1/2/1989 2/2/1989,9/2/1989 10/2/1989,17/2/1989 18/2/1989,25/2/1989 26/2/1989,28/2/1989 
3/1989,4/1989 has 1/3/1989,8/3/1989 9/3/1989,16/3/1989 17/3/1989,24/3/1989 25/3/1989,1/4/1989 2/4/1989,9/4/1989 10/4/1989,17/4/1989 18/4/1989,25/4/1989 26/4/1989,30/4/1989 
5/1989,6/1989 has 1/5/1989,8/5/1989 9/5/1989,16/5/1989 17/5/1989,24/5/1989 25/5/1989,1/6/1989 2/6/1989,9/6/1989 10/6/1989,17/6/1989 18/6/1989,25/6/1989 26/6/1989,30/6/1989 
7/1989,8/1989 has 1/7/1989,8/7/1989 9/7/1989,16/7/1989 17/7/1989,24/7/1989 25/7/1989,1/8/1989 2/8/1989,9/8/1989 10/8/1989,17/8/1989 18/8/1989,25/8/1989 26/8/1989,31/8/1989 
9/1989,10/1989 has 1/9/1989,8/9/1989 9/9/1989,16/9/1989 17/9/1989,24/9/1989 25/9/1989,2/10/1989 3/10/1989,10/10/1989 11/10/1989,18/10/1989 19/10/1989,26/10/1989 27/10/1989,31/10/1989 
11/1989,12/1989 has 1/11/1989,8/11/1989 9/11/1989,16/11/1989 17/11/1989,24/11/1989 25/11/1989,2/12/1989 3/12/1989,10/12/1989 11/12/1989,18/12/1989 19/12/1989,26/12/1989 27/12/1989,31/12/1989 
1/1990,2/1990 has 1/1/1990,8/1/1990 9/1/1990,16/1/1990 17/1/1990,24/1/1990 25/1/1990,1/2/1990 2/2/1990,9/2/1990 10/2/1990,17/2/1990 18/2/1990,25/2/1990 26/2/1990,28/2/1990 
3/1990,4/1990 has 1/3/1990,8/3/1990 9/3/1990,16/3/1990 17/3/1990,24/3/1990 25/3/1990,1/4/1990 2/4/1990,9/4/1990 10/4/1990,17/4/1990 18/4/1990,25/4/1990 26/4/1990,30/4/1990 
5/1990,6/1990 has 1/5/1990,8/5/1990 9/5/1990,16/5/1990 17/5/1990,24/5/1990 25/5/1990,1/6/1990 2/6/1990,9/6/1990 10/6/1990,17/6/1990 18/6/1990,25/6/1990 26/6/1990,30/6/1990 
7/1990,8/1990 has 1/7/1990,8/7/1990 9/7/1990,16/7/1990 17/7/1990,24/7/1990 25/7/1990,1/8/1990 2/8/1990,9/8/1990 10/8/1990,17/8/1990 18/8/1990,25/8/1990 26/8/1990,31/8/1990 
9/1990,10/1990 has 1/9/1990,8/9/1990 9/9/1990,16/9/1990 17/9/1990,24/9/1990 25/9/1990,2/10/1990 3/10/1990,10/10/1990 11/10/1990,18/10/1990 19/10/1990,26/10/1990 27/10/1990,31/10/1990 
11/1990,12/1990 has 1/11/1990,8/11/1990 9/11/1990,16/11/1990 17/11/1990,24/11/1990 25/11/1990,2/12/1990 3/12/1990,10/12/1990 11/12/1990,18/12/1990 19/12/1990,26/12/1990 27/12/1990,31/12/1990 
1/1991,2/1991 has 1/1/1991,8/1/1991 9/1/1991,16/1/1991 17/1/1991,24/1/1991 25/1/1991,1/2/1991 2/2/1991,9/2/1991 10/2/1991,17/2/1991 18/2/1991,25/2/1991 26/2/1991,28/2/1991 
3/1991,4/1991 has 1/3/1991,8/3/1991 9/3/1991,16/3/1991 17/3/1991,24/3/1991 25/3/1991,1/4/1991 2/4/1991,9/4/1991 10/4/1991,17/4/1991 18/4/1991,25/4/1991 26/4/1991,30/4/1991 
5/1991,6/1991 has 1/5/1991,8/5/1991 9/5/1991,16/5/1991 17/5/1991,24/5/1991 25/5/1991,1/6/1991 2/6/1991,9/6/1991 10/6/1991,17/6/1991 18/6/1991,25/6/1991 26/6/1991,30/6/1991 
7/1991,8/1991 has 1/7/1991,8/7/1991 9/7/1991,16/7/1991 17/7/1991,24/7/1991 25/7/1991,1/8/1991 2/8/1991,9/8/1991 10/8/1991,17/8/1991 18/8/1991,25/8/1991 26/8/1991,31/8/1991 
9/1991,10/1991 has 1/9/1991,8/9/1991 9/9/1991,16/9/1991 17/9/1991,24/9/1991 25/9/1991,2/10/1991 3/10/1991,10/10/1991 11/10/1991,18/10/1991 19/10/1991,26/10/1991 27/10/1991,31/10/1991 
11/1991,12/1991 has 1/11/1991,8/11/1991 9/11/1991,16/11/1991 17/11/1991,24/11/1991 25/11/1991,2/12/1991 3/12/1991,10/12/1991 11/12/1991,18/12/1991 19/12/1991,26/12/1991 27/12/1991,31/12/1991 
1/1992,2/1992 has 1/1/1992,8/1/1992 9/1/1992,16/1/1992 17/1/1992,24/1/1992 25/1/1992,1/2/1992 2/2/1992,9/2/1992 10/2/1992,17/2/1992 18/2/1992,25/2/1992 26/2/1992,29/2/1992 
3/1992,4/1992 has 1/3/1992,8/3/1992 9/3/1992,16/3/1992 17/3/1992,24/3/1992 25/3/1992,1/4/1992 2/4/1992,9/4/1992 10/4/1992,17/4/1992 18/4/1992,25/4/1992 26/4/1992,30/4/1992 
5/1992,6/1992 has 1/5/1992,8/5/1992 9/5/1992,16/5/1992 17/5/1992,24/5/1992 25/5/1992,1/6/1992 2/6/1992,9/6/1992 10/6/1992,17/6/1992 18/6/1992,25/6/1992 26/6/1992,30/6/1992 
7/1992,8/1992 has 1/7/1992,8/7/1992 9/7/1992,16/7/1992 17/7/1992,24/7/1992 25/7/1992,1/8/1992 2/8/1992,9/8/1992 10/8/1992,17/8/1992 18/8/1992,25/8/1992 26/8/1992,31/8/1992 
9/1992,10/1992 has 1/9/1992,8/9/1992 9/9/1992,16/9/1992 17/9/1992,24/9/1992 25/9/1992,2/10/1992 3/10/1992,10/10/1992 11/10/1992,18/10/1992 19/10/1992,26/10/1992 27/10/1992,31/10/1992 
11/1992,12/1992 has 1/11/1992,8/11/1992 9/11/1992,16/11/1992 17/11/1992,24/11/1992 25/11/1992,2/12/1992 3/12/1992,10/12/1992 11/12/1992,18/12/1992 19/12/1992,26/12/1992 27/12/1992,31/12/1992 
1/1993,2/1993 has 1/1/1993,8/1/1993 9/1/1993,16/1/1993 17/1/1993,24/1/1993 25/1/1993,1/2/1993 2/2/1993,9/2/1993 10/2/1993,17/2/1993 18/2/1993,25/2/1993 26/2/1993,28/2/1993 
3/1993,4/1993 has 1/3/1993,8/3/1993 9/3/1993,16/3/1993 17/3/1993,24/3/1993 25/3/1993,1/4/1993 2/4/1993,9/4/1993 10/4/1993,17/4/1993 18/4/1993,25/4/1993 26/4/1993,30/4/1993 
5/1993,6/1993 has 1/5/1993,8/5/1993 9/5/1993,16/5/1993 17/5/1993,24/5/1993 25/5/1993,1/6/1993 2/6/1993,9/6/1993 10/6/1993,17/6/1993 18/6/1993,25/6/1993 26/6/1993,30/6/1993 
7/1993,8/1993 has 1/7/1993,8/7/1993 9/7/1993,16/7/1993 17/7/1993,24/7/1993 25/7/1993,1/8/1993 2/8/1993,9/8/1993 10/8/1993,17/8/1993 18/8/1993,25/8/1993 26/8/1993,31/8/1993 
9/1993,10/1993 has 1/9/1993,8/9/1993 9/9/1993,16/9/1993 17/9/1993,24/9/1993 25/9/1993,2/10/1993 3/10/1993,10/10/1993 11/10/1993,18/10/1993 19/10/1993,26/10/1993 27/10/1993,31/10/1993 
11/1993,12/1993 has 1/11/1993,8/11/1993 9/11/1993,16/11/1993 17/11/1993,24/11/1993 25/11/1993,2/12/1993 3/12/1993,10/12/1993 11/12/1993,18/12/1993 19/12/1993,26/12/1993 27/12/1993,31/12/1993 
1/1994,2/1994 has 1/1/1994,8/1/1994 9/1/1994,16/1/1994 17/1/1994,24/1/1994 25/1/1994,1/2/1994 2/2/1994,9/2/1994 10/2/1994,17/2/1994 18/2/1994,25/2/1994 26/2/1994,28/2/1994 
3/1994,4/1994 has 1/3/1994,8/3/1994 9/3/1994,16/3/1994 17/3/1994,24/3/1994 25/3/1994,1/4/1994 2/4/1994,9/4/1994 10/4/1994,17/4/1994 18/4/1994,25/4/1994 26/4/1994,30/4/1994 
5/1994,6/1994 has 1/5/1994,8/5/1994 9/5/1994,16/5/1994 17/5/1994,24/5/1994 25/5/1994,1/6/1994 2/6/1994,9/6/1994 10/6/1994,17/6/1994 18/6/1994,25/6/1994 26/6/1994,30/6/1994 
7/1994,8/1994 has 1/7/1994,8/7/1994 9/7/1994,16/7/1994 17/7/1994,24/7/1994 25/7/1994,1/8/1994 2/8/1994,9/8/1994 10/8/1994,17/8/1994 18/8/1994,25/8/1994 26/8/1994,31/8/1994 
9/1994,10/1994 has 1/9/1994,8/9/1994 9/9/1994,16/9/1994 17/9/1994,24/9/1994 25/9/1994,2/10/1994 3/10/1994,10/10/1994 11/10/1994,18/10/1994 19/10/1994,26/10/1994 27/10/1994,31/10/1994 
11/1994,12/1994 has 1/11/1994,8/11/1994 9/11/1994,16/11/1994 17/11/1994,24/11/1994 25/11/1994,2/12/1994 3/12/1994,10/12/1994 11/12/1994,18/12/1994 19/12/1994,26/12/1994 27/12/1994,31/12/1994 
1/1995,2/1995 has 1/1/1995,8/1/1995 9/1/1995,16/1/1995 17/1/1995,24/1/1995 25/1/1995,1/2/1995 2/2/1995,9/2/1995 10/2/1995,17/2/1995 18/2/1995,25/2/1995 26/2/1995,28/2/1995 
3/1995,4/1995 has 1/3/1995,8/3/1995 9/3/1995,16/3/1995 17/3/1995,24/3/1995 25/3/1995,1/4/1995 2/4/1995,9/4/1995 10/4/1995,17/4/1995 18/4/1995,25/4/1995 26/4/1995,30/4/1995 
5/1995,6/1995 has 1/5/1995,8/5/1995 9/5/1995,16/5/1995 17/5/1995,24/5/1995 25/5/1995,1/6/1995 2/6/1995,9/6/1995 10/6/1995,17/6/1995 18/6/1995,25/6/1995 26/6/1995,30/6/1995 
7/1995,8/1995 has 1/7/1995,8/7/1995 9/7/1995,16/7/1995 17/7/1995,24/7/1995 25/7/1995,1/8/1995 2/8/1995,9/8/1995 10/8/1995,17/8/1995 18/8/1995,25/8/1995 26/8/1995,31/8/1995 
9/1995,10/1995 has 1/9/1995,8/9/1995 9/9/1995,16/9/1995 17/9/1995,24/9/1995 25/9/1995,2/10/1995 3/10/1995,10/10/1995 11/10/1995,18/10/1995 19/10/1995,26/10/1995 27/10/1995,31/10/1995 
11/1995,12/1995 has 1/11/1995,8/11/1995 9/11/1995,16/11/1995 17/11/1995,24/11/1995 25/11/1995,2/12/1995 3/12/1995,10/12/1995 11/12/1995,18/12/1995 19/12/1995,26/12/1995 27/12/1995,31/12/1995 
1/1996,2/1996 has 1/1/1996,8/1/1996 9/1/1996,16/1/1996 17/1/1996,24/1/1996 25/1/1996,1/2/1996 2/2/1996,9/2/1996 10/2/1996,17/2/1996 18/2/1996,25/2/1996 26/2/1996,29/2/1996 
3/1996,4/1996 has 1/3/1996,8/3/1996 9/3/1996,16/3/1996 17/3/1996,24/3/1996 25/3/1996,1/4/1996 2/4/1996,9/4/1996 10/4/1996,17/4/1996 18/4/1996,25/4/1996 26/4/1996,30/4/1996 
5/1996,6/1996 has 1/5/1996,8/5/1996 9/5/1996,16/5/1996 17/5/1996,24/5/1996 25/5/1996,1/6/1996 2/6/1996,9/6/1996 10/6/1996,17/6/1996 18/6/1996,25/6/1996 26/6/1996,30/6/1996 
7/1996,8/1996 has 1/7/1996,8/7/1996 9/7/1996,16/7/1996 17/7/1996,24/7/1996 25/7/1996,1/8/1996 2/8/1996,9/8/1996 10/8/1996,17/8/1996 18/8/1996,25/8/1996 26/8/1996,31/8/1996 
9/1996,10/1996 has 1/9/1996,8/9/1996 9/9/1996,16/9/1996 17/9/1996,24/9/1996 25/9/1996,2/10/1996 3/10/1996,10/10/1996 11/10/1996,18/10/1996 19/10/1996,26/10/1996 27/10/1996,31/10/1996 
11/1996,12/1996 has 1/11/1996,8/11/1996 9/11/1996,16/11/1996 17/11/1996,24/11/1996 25/11/1996,2/12/1996 3/12/1996,10/12/1996 11/12/1996,18/12/1996 19/12/1996,26/12/1996 27/12/1996,31/12/1996 
1/1997,2/1997 has 1/1/1997,8/1/1997 9/1/1997,16/1/1997 17/1/1997,24/1/1997 25/1/1997,1/2/1997 2/2/1997,9/2/1997 10/2/1997,17/2/1997 18/2/1997,25/2/1997 26/2/1997,28/2/1997 
3/1997,4/1997 has 1/3/1997,8/3/1997 9/3/1997,16/3/1997 17/3/1997,24/3/1997 25/3/1997,1/4/1997 2/4/1997,9/4/1997 10/4/1997,17/4/1997 18/4/1997,25/4/1997 26/4/1997,30/4/1997 
5/1997,6/1997 has 1/5/1997,8/5/1997 9/5/1997,16/5/1997 17/5/1997,24/5/1997 25/5/1997,1/6/1997 2/6/1997,9/6/1997 10/6/1997,17/6/1997 18/6/1997,25/6/1997 26/6/1997,30/6/1997 
7/1997,8/1997 has 1/7/1997,8/7/1997 9/7/1997,16/7/1997 17/7/1997,24/7/1997 25/7/1997,1/8/1997 2/8/1997,9/8/1997 10/8/1997,17/8/1997 18/8/1997,25/8/1997 26/8/1997,31/8/1997 
9/1997,10/1997 has 1/9/1997,8/9/1997 9/9/1997,16/9/1997 17/9/1997,24/9/1997 25/9/1997,2/10/1997 3/10/1997,10/10/1997 11/10/1997,18/10/1997 19/10/1997,26/10/1997 27/10/1997,31/10/1997 
11/1997,12/1997 has 1/11/1997,8/11/1997 9/11/1997,16/11/1997 17/11/1997,24/11/1997 25/11/1997,2/12/1997 3/12/1997,10/12/1997 11/12/1997,18/12/1997 19/12/1997,26/12/1997 27/12/1997,31/12/1997 
1/1998,2/1998 has 1/1/1998,8/1/1998 9/1/1998,16/1/1998 17/1/1998,24/1/1998 25/1/1998,1/2/1998 2/2/1998,9/2/1998 10/2/1998,17/2/1998 18/2/1998,25/2/1998 26/2/1998,28/2/1998 
3/1998,4/1998 has 1/3/1998,8/3/1998 9/3/1998,16/3/1998 17/3/1998,24/3/1998 25/3/1998,1/4/1998 2/4/1998,9/4/1998 10/4/1998,17/4/1998 18/4/1998,25/4/1998 26/4/1998,30/4/1998 
5/1998,6/1998 has 1/5/1998,8/5/1998 9/5/1998,16/5/1998 17/5/1998,24/5/1998 25/5/1998,1/6/1998 2/6/1998,9/6/1998 10/6/1998,17/6/1998 18/6/1998,25/6/1998 26/6/1998,30/6/1998 
7/1998,8/1998 has 1/7/1998,8/7/1998 9/7/1998,16/7/1998 17/7/1998,24/7/1998 25/7/1998,1/8/1998 2/8/1998,9/8/1998 10/8/1998,17/8/1998 18/8/1998,25/8/1998 26/8/1998,31/8/1998 
9/1998,10/1998 has 1/9/1998,8/9/1998 9/9/1998,16/9/1998 17/9/1998,24/9/1998 25/9/1998,2/10/1998 3/10/1998,10/10/1998 11/10/1998,18/10/1998 19/10/1998,26/10/1998 27/10/1998,31/10/1998 
11/1998,12/1998 has 1/11/1998,8/11/1998 9/11/1998,16/11/1998 17/11/1998,24/11/1998 25/11/1998,2/12/1998 3/12/1998,10/12/1998 11/12/1998,18/12/1998 19/12/1998,26/12/1998 27/12/1998,31/12/1998 
1/1999,2/1999 has 1/1/1999,8/1/1999 9/1/1999,16/1/1999 17/1/1999,24/1/1999 25/1/1999,1/2/1999 2/2/1999,9/2/1999 10/2/1999,17/2/1999 18/2/1999,25/2/1999 26/2/1999,28/2/1999 
3/1999,4/1999 has 1/3/1999,8/3/1999 9/3/1999,16/3/1999 17/3/1999,24/3/1999 25/3/1999,1/4/1999 2/4/1999,9/4/1999 10/4/1999,17/4/1999 18/4/1999,25/4/1999 26/4/1999,30/4/1999 
5/1999,6/1999 has 1/5/1999,8/5/1999 9/5/1999,16/5/1999 17/5/1999,24/5/1999 25/5/1999,1/6/1999 2/6/1999,9/6/1999 10/6/1999,17/6/1999 18/6/1999,25/6/1999 26/6/1999,30/6/1999 
7/1999,8/1999 has 1/7/1999,8/7/1999 9/7/1999,16/7/1999 17/7/1999,24/7/1999 25/7/1999,1/8/1999 2/8/1999,9/8/1999 10/8/1999,17/8/1999 18/8/1999,25/8/1999 26/8/1999,31/8/1999 
9/1999,10/1999 has 1/9/1999,8/9/1999 9/9/1999,16/9/1999 17/9/1999,24/9/1999 25/9/1999,2/10/1999 3/10/1999,10/10/1999 11/10/1999,18/10/1999 19/10/1999,26/10/1999 27/10/1999,31/10/1999 
11/1999,12/1999 has 1/11/1999,8/11/1999 9/11/1999,16/11/1999 17/11/1999,24/11/1999 25/11/1999,2/12/1999 3/12/1999,10/12/1999 11/12/1999,18/12/1999 19/12/1999,26/12/1999 27/12/1999,31/12/1999 
1/2000,2/2000 has 1/1/2000,8/1/2000 9/1/2000,16/1/2000 17/1/2000,24/1/2000 25/1/2000,1/2/2000 2/2/2000,9/2/2000 10/2/2000,17/2/2000 18/2/2000,25/2/2000 26/2/2000,29/2/2000 
3/2000,4/2000 has 1/3/2000,8/3/2000 9/3/2000,16/3/2000 17/3/2000,24/3/2000 25/3/2000,1/4/2000 2/4/2000,9/4/2000 10/4/2000,17/4/2000 18/4/2000,25/4/2000 26/4/2000,30/4/2000 
5/2000,6/2000 has 1/5/2000,8/5/2000 9/5/2000,16/5/2000 17/5/2000,24/5/2000 25/5/2000,1/6/2000 2/6/2000,9/6/2000 10/6/2000,17/6/2000 18/6/2000,25/6/2000 26/6/2000,30/6/2000 
7/2000,8/2000 has 1/7/2000,8/7/2000 9/7/2000,16/7/2000 17/7/2000,24/7/2000 25/7/2000,1/8/2000 2/8/2000,9/8/2000 10/8/2000,17/8/2000 18/8/2000,25/8/2000 26/8/2000,31/8/2000 
9/2000,10/2000 has 1/9/2000,8/9/2000 9/9/2000,16/9/2000 17/9/2000,24/9/2000 25/9/2000,2/10/2000 3/10/2000,10/10/2000 11/10/2000,18/10/2000 19/10/2000,26/10/2000 27/10/2000,31/10/2000 
11/2000,12/2000 has 1/11/2000,8/11/2000 9/11/2000,16/11/2000 17/11/2000,24/11/2000 25/11/2000,2/12/2000 3/12/2000,10/12/2000 11/12/2000,18/12/2000 19/12/2000,26/12/2000 27/12/2000,31/12/2000 
1/2001,2/2001 has 1/1/2001,8/1/2001 9/1/2001,16/1/2001 17/1/2001,24/1/2001 25/1/2001,1/2/2001 2/2/2001,9/2/2001 10/2/2001,17/2/2001 18/2/2001,25/2/2001 26/2/2001,28/2/2001 
3/2001,4/2001 has 1/3/2001,8/3/2001 9/3/2001,16/3/2001 17/3/2001,24/3/2001 25/3/2001,1/4/2001 2/4/2001,9/4/2001 10/4/2001,17/4/2001 18/4/2001,25/4/2001 26/4/2001,30/4/2001 
5/2001,6/2001 has 1/5/2001,8/5/2001 9/5/2001,16/5/2001 17/5/2001,24/5/2001 25/5/2001,1/6/2001 2/6/2001,9/6/2001 10/6/2001,17/6/2001 18/6/2001,25/6/2001 26/6/2001,30/6/2001 
7/2001,8/2001 has 1/7/2001,8/7/2001 9/7/2001,16/7/2001 17/7/2001,24/7/2001 25/7/2001,1/8/2001 2/8/2001,9/8/2001 10/8/2001,17/8/2001 18/8/2001,25/8/2001 26/8/2001,31/8/2001 
9/2001,10/2001 has 1/9/2001,8/9/2001 9/9/2001,16/9/2001 17/9/2001,24/9/2001 25/9/2001,2/10/2001 3/10/2001,10/10/2001 11/10/2001,18/10/2001 19/10/2001,26/10/2001 27/10/2001,31/10/2001 
11/2001,12/2001 has 1/11/2001,8/11/2001 9/11/2001,16/11/2001 17/11/2001,24/11/2001 25/11/2001,2/12/2001 3/12/2001,10/12/2001 11/12/2001,18/12/2001 19/12/2001,26/12/2001 27/12/2001,31/12/2001 
1/2002,2/2002 has 1/1/2002,8/1/2002 9/1/2002,16/1/2002 17/1/2002,24/1/2002 25/1/2002,1/2/2002 2/2/2002,9/2/2002 10/2/2002,17/2/2002 18/2/2002,25/2/2002 26/2/2002,28/2/2002 
3/2002,4/2002 has 1/3/2002,8/3/2002 9/3/2002,16/3/2002 17/3/2002,24/3/2002 25/3/2002,1/4/2002 2/4/2002,9/4/2002 10/4/2002,17/4/2002 18/4/2002,25/4/2002 26/4/2002,30/4/2002 
5/2002,6/2002 has 1/5/2002,8/5/2002 9/5/2002,16/5/2002 17/5/2002,24/5/2002 25/5/2002,1/6/2002 2/6/2002,9/6/2002 10/6/2002,17/6/2002 18/6/2002,25/6/2002 26/6/2002,30/6/2002 
7/2002,8/2002 has 1/7/2002,8/7/2002 9/7/2002,16/7/2002 17/7/2002,24/7/2002 25/7/2002,1/8/2002 2/8/2002,9/8/2002 10/8/2002,17/8/2002 18/8/2002,25/8/2002 26/8/2002,31/8/2002 
9/2002,10/2002 has 1/9/2002,8/9/2002 9/9/2002,16/9/2002 17/9/2002,24/9/2002 25/9/2002,2/10/2002 3/10/2002,10/10/2002 11/10/2002,18/10/2002 19/10/2002,26/10/2002 27/10/2002,31/10/2002 
11/2002,12/2002 has 1/11/2002,8/11/2002 9/11/2002,16/11/2002 17/11/2002,24/11/2002 25/11/2002,2/12/2002 3/12/2002,10/12/2002 11/12/2002,18/12/2002 19/12/2002,26/12/2002 27/12/2002,31/12/2002 
1/2003,2/2003 has 1/1/2003,8/1/2003 9/1/2003,16/1/2003 17/1/2003,24/1/2003 25/1/2003,1/2/2003 2/2/2003,9/2/2003 10/2/2003,17/2/2003 18/2/2003,25/2/2003 26/2/2003,28/2/2003 
3/2003,4/2003 has 1/3/2003,8/3/2003 9/3/2003,16/3/2003 17/3/2003,24/3/2003 25/3/2003,1/4/2003 2/4/2003,9/4/2003 10/4/2003,17/4/2003 18/4/2003,25/4/2003 26/4/2003,30/4/2003 
5/2003,6/2003 has 1/5/2003,8/5/2003 9/5/2003,16/5/2003 17/5/2003,24/5/2003 25/5/2003,1/6/2003 2/6/2003,9/6/2003 10/6/2003,17/6/2003 18/6/2003,25/6/2003 26/6/2003,30/6/2003 
7/2003,8/2003 has 1/7/2003,8/7/2003 9/7/2003,16/7/2003 17/7/2003,24/7/2003 25/7/2003,1/8/2003 2/8/2003,9/8/2003 10/8/2003,17/8/2003 18/8/2003,25/8/2003 26/8/2003,31/8/2003 
9/2003,10/2003 has 1/9/2003,8/9/2003 9/9/2003,16/9/2003 17/9/2003,24/9/2003 25/9/2003,2/10/2003 3/10/2003,10/10/2003 11/10/2003,18/10/2003 19/10/2003,26/10/2003 27/10/2003,31/10/2003 
11/2003,12/2003 has 1/11/2003,8/11/2003 9/11/2003,16/11/2003 17/11/2003,24/11/2003 25/11/2003,2/12/2003 3/12/2003,10/12/2003 11/12/2003,18/12/2003 19/12/2003,26/12/2003 27/12/2003,31/12/2003 
1/2004,2/2004 has 1/1/2004,8/1/2004 9/1/2004,16/1/2004 17/1/2004,24/1/2004 25/1/2004,1/2/2004 2/2/2004,9/2/2004 10/2/2004,17/2/2004 18/2/2004,25/2/2004 26/2/2004,29/2/2004 
3/2004,4/2004 has 1/3/2004,8/3/2004 9/3/2004,16/3/2004 17/3/2004,24/3/2004 25/3/2004,1/4/2004 2/4/2004,9/4/2004 10/4/2004,17/4/2004 18/4/2004,25/4/2004 26/4/2004,30/4/2004 
5/2004,6/2004 has 1/5/2004,8/5/2004 9/5/2004,16/5/2004 17/5/2004,24/5/2004 25/5/2004,1/6/2004 2/6/2004,9/6/2004 10/6/2004,17/6/2004 18/6/2004,25/6/2004 26/6/2004,30/6/2004 
7/2004,8/2004 has 1/7/2004,8/7/2004 9/7/2004,16/7/2004 17/7/2004,24/7/2004 25/7/2004,1/8/2004 2/8/2004,9/8/2004 10/8/2004,17/8/2004 18/8/2004,25/8/2004 26/8/2004,31/8/2004 
9/2004,10/2004 has 1/9/2004,8/9/2004 9/9/2004,16/9/2004 17/9/2004,24/9/2004 25/9/2004,2/10/2004 3/10/2004,10/10/2004 11/10/2004,18/10/2004 19/10/2004,26/10/2004 27/10/2004,31/10/2004 
11/2004,12/2004 has 1/11/2004,8/11/2004 9/11/2004,16/11/2004 17/11/2004,24/11/2004 25/11/2004,2/12/2004 3/12/2004,10/12/2004 11/12/2004,18/12/2004 19/12/2004,26/12/2004 27/12/2004,31/12/2004 
1/2005,2/2005 has 1/1/2005,8/1/2005 9/1/2005,16/1/2005 17/1/2005,24/1/2005 25/1/2005,1/2/2005 2/2/2005,9/2/2005 10/2/2005,17/2/2005 18/2/2005,25/2/2005 26/2/2005,28/2/2005 
3/2005,4/2005 has 1/3/2005,8/3/2005 9/3/2005,16/3/2005 17/3/2005,24/3/2005 25/3/2005,1/4/2005 2/4/2005,9/4/2005 10/4/2005,17/4/2005 18/4/2005,25/4/2005 26/4/2005,30/4/2005 
5/2005,6/2005 has 1/5/2005,8/5/2005 9/5/2005,16/5/2005 17/5/2005,24/5/2005 25/5/2005,1/6/2005 2/6/2005,9/6/2005 10/6/2005,17/6/2005 18/6/2005,25/6/2005 26/6/2005,30/6/2005 
7/2005,8/2005 has 1/7/2005,8/7/2005 9/7/2005,16/7/2005 17/7/2005,24/7/2005 25/7/2005,1/8/2005 2/8/2005,9/8/2005 10/8/2005,17/8/2005 18/8/2005,25/8/2005 26/8/2005,31/8/2005 
9/2005,10/2005 has 1/9/2005,8/9/2005 9/9/2005,16/9/2005 17/9/2005,24/9/2005 25/9/2005,2/10/2005 3/10/2005,10/10/2005 11/10/2005,18/10/2005 19/10/2005,26/10/2005 27/10/2005,31/10/2005 
11/2005,12/2005 has 1/11/2005,8/11/2005 9/11/2005,16/11/2005 17/11/2005,24/11/2005 25/11/2005,2/12/2005 3/12/2005,10/12/2005 11/12/2005,18/12/2005 19/12/2005,26/12/2005 27/12/2005,31/12/2005 
1/2006,2/2006 has 1/1/2006,8/1/2006 9/1/2006,16/1/2006 17/1/2006,24/1/2006 25/1/2006,1/2/2006 2/2/2006,9/2/2006 10/2/2006,17/2/2006 18/2/2006,25/2/2006 26/2/2006,28/2/2006 
3/2006,4/2006 has 1/3/2006,8/3/2006 9/3/2006,16/3/2006 17/3/2006,24/3/2006 25/3/2006,1/4/2006 2/4/2006,9/4/2006 10/4/2006,17/4/2006 18/4/2006,25/4/2006 26/4/2006,30/4/2006 
5/2006,6/2006 has 1/5/2006,8/5/2006 9/5/2006,16/5/2006 17/5/2006,24/5/2006 25/5/2006,1/6/2006 2/6/2006,9/6/2006 10/6/2006,17/6/2006 18/6/2006,25/6/2006 26/6/2006,30/6/2006 
7/2006,8/2006 has 1/7/2006,8/7/2006 9/7/2006,16/7/2006 17/7/2006,24/7/2006 25/7/2006,1/8/2006 2/8/2006,9/8/2006 10/8/2006,17/8/2006 18/8/2006,25/8/2006 26/8/2006,31/8/2006 
9/2006,10/2006 has 1/9/2006,8/9/2006 9/9/2006,16/9/2006 17/9/2006,24/9/2006 25/9/2006,2/10/2006 3/10/2006,10/10/2006 11/10/2006,18/10/2006 19/10/2006,26/10/2006 27/10/2006,31/10/2006 
11/2006,12/2006 has 1/11/2006,8/11/2006 9/11/2006,16/11/2006 17/11/2006,24/11/2006 25/11/2006,2/12/2006 3/12/2006,10/12/2006 11/12/2006,18/12/2006 19/12/2006,26/12/2006 27/12/2006,31/12/2006 
1/2007,2/2007 has 1/1/2007,8/1/2007 9/1/2007,16/1/2007 17/1/2007,24/1/2007 25/1/2007,1/2/2007 2/2/2007,9/2/2007 10/2/2007,17/2/2007 18/2/2007,25/2/2007 26/2/2007,28/2/2007 
3/2007,4/2007 has 1/3/2007,8/3/2007 9/3/2007,16/3/2007 17/3/2007,24/3/2007 25/3/2007,1/4/2007 2/4/2007,9/4/2007 10/4/2007,17/4/2007 18/4/2007,25/4/2007 26/4/2007,30/4/2007 
5/2007,6/2007 has 1/5/2007,8/5/2007 9/5/2007,16/5/2007 17/5/2007,24/5/2007 25/5/2007,1/6/2007 2/6/2007,9/6/2007 10/6/2007,17/6/2007 18/6/2007,25/6/2007 26/6/2007,30/6/2007 
7/2007,8/2007 has 1/7/2007,8/7/2007 9/7/2007,16/7/2007 17/7/2007,24/7/2007 25/7/2007,1/8/2007 2/8/2007,9/8/2007 10/8/2007,17/8/2007 18/8/2007,25/8/2007 26/8/2007,31/8/2007 
9/2007,10/2007 has 1/9/2007,8/9/2007 9/9/2007,16/9/2007 17/9/2007,24/9/2007 25/9/2007,2/10/2007 3/10/2007,10/10/2007 11/10/2007,18/10/2007 19/10/2007,26/10/2007 27/10/2007,31/10/2007 
11/2007,12/2007 has 1/11/2007,8/11/2007 9/11/2007,16/11/2007 17/11/2007,24/11/2007 25/11/2007,2/12/2007 3/12/2007,10/12/2007 11/12/2007,18/12/2007 19/12/2007,26/12/2007 27/12/2007,31/12/2007 
1/2008,2/2008 has 1/1/2008,8/1/2008 9/1/2008,16/1/2008 17/1/2008,24/1/2008 25/1/2008,1/2/2008 2/2/2008,9/2/2008 10/2/2008,17/2/2008 18/2/2008,25/2/2008 26/2/2008,29/2/2008 
3/2008,4/2008 has 1/3/2008,8/3/2008 9/3/2008,16/3/2008 17/3/2008,24/3/2008 25/3/2008,1/4/2008 2/4/2008,9/4/2008 10/4/2008,17/4/2008 18/4/2008,25/4/2008 26/4/2008,30/4/2008 
5/2008,6/2008 has 1/5/2008,8/5/2008 9/5/2008,16/5/2008 17/5/2008,24/5/2008 25/5/2008,1/6/2008 2/6/2008,9/6/2008 10/6/2008,17/6/2008 18/6/2008,25/6/2008 26/6/2008,30/6/2008 
7/2008,8/2008 has 1/7/2008,8/7/2008 9/7/2008,16/7/2008 17/7/2008,24/7/2008 25/7/2008,1/8/2008 2/8/2008,9/8/2008 10/8/2008,17/8/2008 18/8/2008,25/8/2008 26/8/2008,31/8/2008 
9/2008,10/2008 has 1/9/2008,8/9/2008 9/9/2008,16/9/2008 17/9/2008,24/9/2008 25/9/2008,2/10/2008 3/10/2008,10/10/2008 11/10/2008,18/10/2008 19/10/2008,26/10/2008 27/10/2008,31/10/2008 
11/2008,12/2008 has 1/11/2008,8/11/2008 9/11/2008,16/11/2008 17/11/2008,24/11/2008 25/11/2008,2/12/2008 3/12/2008,10/12/2008 11/12/2008,18/12/2008 19/12/2008,26/12/2008 27/12/2008,31/12/2008 
1/2009,2/2009 has 1/1/2009,8/1/2009 9/1/2009,16/1/2009 17/1/2009,24/1/2009 25/1/2009,1/2/2009 2/2/2009,9/2/2009 10/2/2009,17/2/2009 18/2/2009,25/2/2009 26/2/2009,28/2/2009 
3/2009,4/2009 has 1/3/2009,8/3/2009 9/3/2009,16/3/2009 17/3/2009,24/3/2009 25/3/2009,1/4/2009 2/4/2009,9/4/2009 10/4/2009,17/4/2009 18/4/2009,25/4/2009 26/4/2009,30/4/2009 
5/2009,6/2009 has 1/5/2009,8/5/2009 9/5/2009,16/5/2009 17/5/2009,24/5/2009 25/5/2009,1/6/2009 2/6/2009,9/6/2009 10/6/2009,17/6/2009 18/6/2009,25/6/2009 26/6/2009,30/6/2009 
7/2009,8/2009 has 1/7/2009,8/7/2009 9/7/2009,16/7/2009 17/7/2009,24/7/2009 25/7/2009,1/8/2009 2/8/2009,9/8/2009 10/8/2009,17/8/2009 18/8/2009,25/8/2009 26/8/2009,31/8/2009 
9/2009,10/2009 has 1/9/2009,8/9/2009 9/9/2009,16/9/2009 17/9/2009,24/9/2009 25/9/2009,2/10/2009 3/10/2009,10/10/2009 11/10/2009,18/10/2009 19/10/2009,26/10/2009 27/10/2009,31/10/2009 
11/2009,12/2009 has 1/11/2009,8/11/2009 9/11/2009,16/11/2009 17/11/2009,24/11/2009 25/11/2009,2/12/2009 3/12/2009,10/12/2009 11/12/2009,18/12/2009 19/12/2009,26/12/2009 27/12/2009,31/12/2009 
1/2010,2/2010 has 1/1/2010,8/1/2010 9/1/2010,16/1/2010 17/1/2010,24/1/2010 25/1/2010,1/2/2010 2/2/2010,9/2/2010 10/2/2010,17/2/2010 18/2/2010,25/2/2010 26/2/2010,28/2/2010 
3/2010,4/2010 has 1/3/2010,8/3/2010 9/3/2010,16/3/2010 17/3/2010,24/3/2010 25/3/2010,1/4/2010 2/4/2010,9/4/2010 10/4/2010,17/4/2010 18/4/2010,25/4/2010 26/4/2010,30/4/2010 
5/2010,6/2010 has 1/5/2010,8/5/2010 9/5/2010,16/5/2010 17/5/2010,24/5/2010 25/5/2010,1/6/2010 2/6/2010,9/6/2010 10/6/2010,17/6/2010 18/6/2010,25/6/2010 26/6/2010,30/6/2010 
7/2010,8/2010 has 1/7/2010,8/7/2010 9/7/2010,16/7/2010 17/7/2010,24/7/2010 25/7/2010,1/8/2010 2/8/2010,9/8/2010 10/8/2010,17/8/2010 18/8/2010,25/8/2010 26/8/2010,31/8/2010 
9/2010,10/2010 has 1/9/2010,8/9/2010 9/9/2010,16/9/2010 17/9/2010,24/9/2010 25/9/2010,2/10/2010 3/10/2010,10/10/2010 11/10/2010,18/10/2010 19/10/2010,26/10/2010 27/10/2010,31/10/2010 
11/2010,12/2010 has 1/11/2010,8/11/2010 9/11/2010,16/11/2010 17/11/2010,24/11/2010 25/11/2010,2/12/2010 3/12/2010,10/12/2010 11/12/2010,18/12/2010 19/12/2010,26/12/2010 27/12/2010,31/12/2010 
1/2011,2/2011 has 1/1/2011,8/1/2011 9/1/2011,16/1/2011 17/1/2011,24/1/2011 25/1/2011,1/2/2011 2/2/2011,9/2/2011 10/2/2011,17/2/2011 18/2/2011,25/2/2011 26/2/2011,28/2/2011 
3/2011,4/2011 has 1/3/2011,8/3/2011 9/3/2011,16/3/2011 17/3/2011,24/3/2011 25/3/2011,1/4/2011 2/4/2011,9/4/2011 10/4/2011,17/4/2011 18/4/2011,25/4/2011 26/4/2011,30/4/2011 
5/2011,6/2011 has 1/5/2011,8/5/2011 9/5/2011,16/5/2011 17/5/2011,24/5/2011 25/5/2011,1/6/2011 2/6/2011,9/6/2011 10/6/2011,17/6/2011 18/6/2011,25/6/2011 26/6/2011,30/6/2011 
7/2011,8/2011 has 1/7/2011,8/7/2011 9/7/2011,16/7/2011 17/7/2011,24/7/2011 25/7/2011,1/8/2011 2/8/2011,9/8/2011 10/8/2011,17/8/2011 18/8/2011,25/8/2011 26/8/2011,31/8/2011 
9/2011,10/2011 has 1/9/2011,8/9/2011 9/9/2011,16/9/2011 17/9/2011,24/9/2011 25/9/2011,2/10/2011 3/10/2011,10/10/2011 11/10/2011,18/10/2011 19/10/2011,26/10/2011 27/10/2011,31/10/2011 
11/2011,12/2011 has 1/11/2011,8/11/2011 9/11/2011,16/11/2011 17/11/2011,24/11/2011 25/11/2011,2/12/2011 3/12/2011,10/12/2011 11/12/2011,18/12/2011 19/12/2011,26/12/2011 27/12/2011,31/12/2011 
1/2012,2/2012 has 1/1/2012,8/1/2012 9/1/2012,16/1/2012 17/1/2012,24/1/2012 25/1/2012,1/2/2012 2/2/2012,9/2/2012 10/2/2012,17/2/2012 18/2/2012,25/2/2012 26/2/2012,29/2/2012 
3/2012,4/2012 has 1/3/2012,8/3/2012 9/3/2012,16/3/2012 17/3/2012,24/3/2012 25/3/2012,1/4/2012 2/4/2012,9/4/2012 10/4/2012,17/4/2012 18/4/2012,25/4/2012 26/4/2012,30/4/2012 
5/2012,6/2012 has 1/5/2012,8/5/2012 9/5/2012,16/5/2012 17/5/2012,24/5/2012 25/5/2012,1/6/2012 2/6/2012,9/6/2012 10/6/2012,17/6/2012 18/6/2012,25/6/2012 26/6/2012,30/6/2012 
7/2012,8/2012 has 1/7/2012,8/7/2012 9/7/2012,16/7/2012 17/7/2012,24/7/2012 25/7/2012,1/8/2012 2/8/2012,9/8/2012 10/8/2012,17/8/2012 18/8/2012,25/8/2012 26/8/2012,31/8/2012 
9/2012,10/2012 has 1/9/2012,8/9/2012 9/9/2012,16/9/2012 17/9/2012,24/9/2012 25/9/2012,2/10/2012 3/10/2012,10/10/2012 11/10/2012,18/10/2012 19/10/2012,26/10/2012 27/10/2012,31/10/2012 
11/2012,12/2012 has 1/11/2012,8/11/2012 9/11/2012,16/11/2012 17/11/2012,24/11/2012 25/11/2012,2/12/2012 3/12/2012,10/12/2012 11/12/2012,18/12/2012 19/12/2012,26/12/2012 27/12/2012,31/12/2012 
1/2013,2/2013 has 1/1/2013,8/1/2013 9/1/2013,16/1/2013 17/1/2013,24/1/2013 25/1/2013,1/2/2013 2/2/2013,9/2/2013 10/2/2013,17/2/2013 18/2/2013,25/2/2013 26/2/2013,28/2/2013 
3/2013,4/2013 has 1/3/2013,8/3/2013 9/3/2013,16/3/2013 17/3/2013,24/3/2013 25/3/2013,1/4/2013 2/4/2013,9/4/2013 10/4/2013,17/4/2013 18/4/2013,25/4/2013 26/4/2013,30/4/2013 
5/2013,6/2013 has 1/5/2013,8/5/2013 9/5/2013,16/5/2013 17/5/2013,24/5/2013 25/5/2013,1/6/2013 2/6/2013,9/6/2013 10/6/2013,17/6/2013 18/6/2013,25/6/2013 26/6/2013,30/6/2013 
7/2013,8/2013 has 1/7/2013,8/7/2013 9/7/2013,16/7/2013 17/7/2013,24/7/2013 25/7/2013,1/8/2013 2/8/2013,9/8/2013 10/8/2013,17/8/2013 18/8/2013,25/8/2013 26/8/2013,31/8/2013 
9/2013,10/2013 has 1/9/2013,8/9/2013 9/9/2013,16/9/2013 17/9/2013,24/9/2013 25/9/2013,2/10/2013 3/10/2013,10/10/2013 11/10/2013,18/10/2013 19/10/2013,26/10/2013 27/10/2013,31/10/2013 
11/2013,12/2013 has 1/11/2013,8/11/2013 9/11/2013,16/11/2013 17/11/2013,24/11/2013 25/11/2013,2/12/2013 3/12/2013,10/12/2013 11/12/2013,18/12/2013 19/12/2013,26/12/2013 27/12/2013,31/12/2013 
1/2014,2/2014 has 1/1/2014,8/1/2014 9/1/2014,16/1/2014 17/1/2014,24/1/2014 25/1/2014,1/2/2014 2/2/2014,9/2/2014 10/2/2014,17/2/2014 18/2/2014,25/2/2014 26/2/2014,28/2/2014 
3/2014,4/2014 has 1/3/2014,8/3/2014 9/3/2014,16/3/2014 17/3/2014,24/3/2014 25/3/2014,1/4/2014 2/4/2014,9/4/2014 10/4/2014,17/4/2014 18/4/2014,25/4/2014 26/4/2014,30/4/2014 
5/2014,6/2014 has 1/5/2014,8/5/2014 9/5/2014,16/5/2014 17/5/2014,24/5/2014 25/5/2014,1/6/2014 2/6/2014,9/6/2014 10/6/2014,17/6/2014 18/6/2014,25/6/2014 26/6/2014,30/6/2014 
7/2014,8/2014 has 1/7/2014,8/7/2014 9/7/2014,16/7/2014 17/7/2014,24/7/2014 25/7/2014,1/8/2014 2/8/2014,9/8/2014 10/8/2014,17/8/2014 18/8/2014,25/8/2014 26/8/2014,31/8/2014 
9/2014,10/2014 has 1/9/2014,8/9/2014 9/9/2014,16/9/2014 17/9/2014,24/9/2014 25/9/2014,2/10/2014 3/10/2014,10/10/2014 11/10/2014,18/10/2014 19/10/2014,26/10/2014 27/10/2014,31/10/2014 
11/2014,12/2014 has 1/11/2014,8/11/2014 9/11/2014,16/11/2014 17/11/2014,24/11/2014 25/11/2014,2/12/2014 3/12/2014,10/12/2014 11/12/2014,18/12/2014 19/12/2014,26/12/2014 27/12/2014,31/12/2014 
1/2015,2/2015 has 1/1/2015,8/1/2015 9/1/2015,16/1/2015 17/1/2015,24/1/2015 25/1/2015,1/2/2015 2/2/2015,9/2/2015 10/2/2015,17/2/2015 18/2/2015,25/2/2015 26/2/2015,28/2/2015 
3/2015,4/2015 has 1/3/2015,8/3/2015 9/3/2015,16/3/2015 17/3/2015,24/3/2015 25/3/2015,1/4/2015 2/4/2015,9/4/2015 10/4/2015,17/4/2015 18/4/2015,25/4/2015 26/4/2015,30/4/2015 
5/2015,6/2015 has 1/5/2015,8/5/2015 9/5/2015,16/5/2015 17/5/2015,24/5/2015 25/5/2015,1/6/2015 2/6/2015,9/6/2015 10/6/2015,17/6/2015 18/6/2015,25/6/2015 26/6/2015,30/6/2015 
7/2015,8/2015 has 1/7/2015,8/7/2015 9/7/2015,16/7/2015 17/7/2015,24/7/2015 25/7/2015,1/8/2015 2/8/2015,9/8/2015 10/8/2015,17/8/2015 18/8/2015,25/8/2015 26/8/2015,31/8/2015 
9/2015,10/2015 has 1/9/2015,8/9/2015 9/9/2015,16/9/2015 17/9/2015,24/9/2015 25/9/2015,2/10/2015 3/10/2015,10/10/2015 11/10/2015,18/10/2015 19/10/2015,26/10/2015 27/10/2015,31/10/2015 
11/2015,12/2015 has 1/11/2015,8/11/2015 9/11/2015,16/11/2015 17/11/2015,24/11/2015 25/11/2015,2/12/2015 3/12/2015,10/12/2015 11/12/2015,18/12/2015 19/12/2015,26/12/2015 27/12/2015,31/12/2015 
1/2016,2/2016 has 1/1/2016,8/1/2016 9/1/2016,16/1/2016 17/1/2016,24/1/2016 25/1/2016,1/2/2016 2/2/2016,9/2/2016 10/2/2016,17/2/2016 18/2/2016,25/2/2016 26/2/2016,29/2/2016 
3/2016,4/2016 has 1/3/2016,8/3/2016 9/3/2016,16/3/2016 17/3/2016,24/3/2016 25/3/2016,1/4/2016 2/4/2016,9/4/2016 10/4/2016,17/4/2016 18/4/2016,25/4/2016 26/4/2016,30/4/2016 
5/2016,6/2016 has 1/5/2016,8/5/2016 9/5/2016,16/5/2016 17/5/2016,24/5/2016 25/5/2016,1/6/2016 2/6/2016,9/6/2016 10/6/2016,17/6/2016 18/6/2016,25/6/2016 26/6/2016,30/6/2016 
7/2016,8/2016 has 1/7/2016,8/7/2016 9/7/2016,16/7/2016 17/7/2016,24/7/2016 25/7/2016,1/8/2016 2/8/2016,9/8/2016 10/8/2016,17/8/2016 18/8/2016,25/8/2016 26/8/2016,31/8/2016 
9/2016,10/2016 has 1/9/2016,8/9/2016 9/9/2016,16/9/2016 17/9/2016,24/9/2016 25/9/2016,2/10/2016 3/10/2016,10/10/2016 11/10/2016,18/10/2016 19/10/2016,26/10/2016 27/10/2016,31/10/2016 
11/2016,12/2016 has 1/11/2016,8/11/2016 9/11/2016,16/11/2016 17/11/2016,24/11/2016 25/11/2016,2/12/2016 3/12/2016,10/12/2016 11/12/2016,18/12/2016 19/12/2016,26/12/2016 27/12/2016,31/12/2016 

1940,1940 has 1/1940,2/1940 3/1940,4/1940 5/1940,6/1940 7/1940,8/1940 9/1940,10/1940 11/1940,12/1940 
1941,1941 has 1/1941,2/1941 3/1941,4/1941 5/1941,6/1941 7/1941,8/1941 9/1941,10/1941 11/1941,12/1941 
1942,1942 has 1/1942,2/1942 3/1942,4/1942 5/1942,6/1942 7/1942,8/1942 9/1942,10/1942 11/1942,12/1942 
1943,1943 has 1/1943,2/1943 3/1943,4/1943 5/1943,6/1943 7/1943,8/1943 9/1943,10/1943 11/1943,12/1943 
1944,1944 has 1/1944,2/1944 3/1944,4/1944 5/1944,6/1944 7/1944,8/1944 9/1944,10/1944 11/1944,12/1944 
1945,1945 has 1/1945,2/1945 3/1945,4/1945 5/1945,6/1945 7/1945,8/1945 9/1945,10/1945 11/1945,12/1945 
1946,1946 has 1/1946,2/1946 3/1946,4/1946 5/1946,6/1946 7/1946,8/1946 9/1946,10/1946 11/1946,12/1946 
1947,1947 has 1/1947,2/1947 3/1947,4/1947 5/1947,6/1947 7/1947,8/1947 9/1947,10/1947 11/1947,12/1947 
1948,1948 has 1/1948,2/1948 3/1948,4/1948 5/1948,6/1948 7/1948,8/1948 9/1948,10/1948 11/1948,12/1948 
1949,1949 has 1/1949,2/1949 3/1949,4/1949 5/1949,6/1949 7/1949,8/1949 9/1949,10/1949 11/1949,12/1949 
1950,1950 has 1/1950,2/1950 3/1950,4/1950 5/1950,6/1950 7/1950,8/1950 9/1950,10/1950 11/1950,12/1950 
1951,1951 has 1/1951,2/1951 3/1951,4/1951 5/1951,6/1951 7/1951,8/1951 9/1951,10/1951 11/1951,12/1951 
1952,1952 has 1/1952,2/1952 3/1952,4/1952 5/1952,6/1952 7/1952,8/1952 9/1952,10/1952 11/1952,12/1952 
1953,1953 has 1/1953,2/1953 3/1953,4/1953 5/1953,6/1953 7/1953,8/1953 9/1953,10/1953 11/1953,12/1953 
1954,1954 has 1/1954,2/1954 3/1954,4/1954 5/1954,6/1954 7/1954,8/1954 9/1954,10/1954 11/1954,12/1954 
1955,1955 has 1/1955,2/1955 3/1955,4/1955 5/1955,6/1955 7/1955,8/1955 9/1955,10/1955 11/1955,12/1955 
1956,1956 has 1/1956,2/1956 3/1956,4/1956 5/1956,6/1956 7/1956,8/1956 9/1956,10/1956 11/1956,12/1956 
1957,1957 has 1/1957,2/1957 3/1957,4/1957 5/1957,6/1957 7/1957,8/1957 9/1957,10/1957 11/1957,12/1957 
1958,1958 has 1/1958,2/1958 3/1958,4/1958 5/1958,6/1958 7/1958,8/1958 9/1958,10/1958 11/1958,12/1958 
1959,1959 has 1/1959,2/1959 3/1959,4/1959 5/1959,6/1959 7/1959,8/1959 9/1959,10/1959 11/1959,12/1959 
1960,1960 has 1/1960,2/1960 3/1960,4/1960 5/1960,6/1960 7/1960,8/1960 9/1960,10/1960 11/1960,12/1960 
1961,1961 has 1/1961,2/1961 3/1961,4/1961 5/1961,6/1961 7/1961,8/1961 9/1961,10/1961 11/1961,12/1961 
1962,1962 has 1/1962,2/1962 3/1962,4/1962 5/1962,6/1962 7/1962,8/1962 9/1962,10/1962 11/1962,12/1962 
1963,1963 has 1/1963,2/1963 3/1963,4/1963 5/1963,6/1963 7/1963,8/1963 9/1963,10/1963 11/1963,12/1963 
1964,1964 has 1/1964,2/1964 3/1964,4/1964 5/1964,6/1964 7/1964,8/1964 9/1964,10/1964 11/1964,12/1964 
1965,1965 has 1/1965,2/1965 3/1965,4/1965 5/1965,6/1965 7/1965,8/1965 9/1965,10/1965 11/1965,12/1965 
1966,1966 has 1/1966,2/1966 3/1966,4/1966 5/1966,6/1966 7/1966,8/1966 9/1966,10/1966 11/1966,12/1966 
1967,1967 has 1/1967,2/1967 3/1967,4/1967 5/1967,6/1967 7/1967,8/1967 9/1967,10/1967 11/1967,12/1967 
1968,1968 has 1/1968,2/1968 3/1968,4/1968 5/1968,6/1968 7/1968,8/1968 9/1968,10/1968 11/1968,12/1968 
1969,1969 has 1/1969,2/1969 3/1969,4/1969 5/1969,6/1969 7/1969,8/1969 9/1969,10/1969 11/1969,12/1969 
1970,1970 has 1/1970,2/1970 3/1970,4/1970 5/1970,6/1970 7/1970,8/1970 9/1970,10/1970 11/1970,12/1970 
1971,1971 has 1/1971,2/1971 3/1971,4/1971 5/1971,6/1971 7/1971,8/1971 9/1971,10/1971 11/1971,12/1971 
1972,1972 has 1/1972,2/1972 3/1972,4/1972 5/1972,6/1972 7/1972,8/1972 9/1972,10/1972 11/1972,12/1972 
1973,1973 has 1/1973,2/1973 3/1973,4/1973 5/1973,6/1973 7/1973,8/1973 9/1973,10/1973 11/1973,12/1973 
1974,1974 has 1/1974,2/1974 3/1974,4/1974 5/1974,6/1974 7/1974,8/1974 9/1974,10/1974 11/1974,12/1974 
1975,1975 has 1/1975,2/1975 3/1975,4/1975 5/1975,6/1975 7/1975,8/1975 9/1975,10/1975 11/1975,12/1975 
1976,1976 has 1/1976,2/1976 3/1976,4/1976 5/1976,6/1976 7/1976,8/1976 9/1976,10/1976 11/1976,12/1976 
1977,1977 has 1/1977,2/1977 3/1977,4/1977 5/1977,6/1977 7/1977,8/1977 9/1977,10/1977 11/1977,12/1977 
1978,1978 has 1/1978,2/1978 3/1978,4/1978 5/1978,6/1978 7/1978,8/1978 9/1978,10/1978 11/1978,12/1978 
1979,1979 has 1/1979,2/1979 3/1979,4/1979 5/1979,6/1979 7/1979,8/1979 9/1979,10/1979 11/1979,12/1979 
1980,1980 has 1/1980,2/1980 3/1980,4/1980 5/1980,6/1980 7/1980,8/1980 9/1980,10/1980 11/1980,12/1980 
1981,1981 has 1/1981,2/1981 3/1981,4/1981 5/1981,6/1981 7/1981,8/1981 9/1981,10/1981 11/1981,12/1981 
1982,1982 has 1/1982,2/1982 3/1982,4/1982 5/1982,6/1982 7/1982,8/1982 9/1982,10/1982 11/1982,12/1982 
1983,1983 has 1/1983,2/1983 3/1983,4/1983 5/1983,6/1983 7/1983,8/1983 9/1983,10/1983 11/1983,12/1983 
1984,1984 has 1/1984,2/1984 3/1984,4/1984 5/1984,6/1984 7/1984,8/1984 9/1984,10/1984 11/1984,12/1984 
1985,1985 has 1/1985,2/1985 3/1985,4/1985 5/1985,6/1985 7/1985,8/1985 9/1985,10/1985 11/1985,12/1985 
1986,1986 has 1/1986,2/1986 3/1986,4/1986 5/1986,6/1986 7/1986,8/1986 9/1986,10/1986 11/1986,12/1986 
1987,1987 has 1/1987,2/1987 3/1987,4/1987 5/1987,6/1987 7/1987,8/1987 9/1987,10/1987 11/1987,12/1987 
1988,1988 has 1/1988,2/1988 3/1988,4/1988 5/1988,6/1988 7/1988,8/1988 9/1988,10/1988 11/1988,12/1988 
1989,1989 has 1/1989,2/1989 3/1989,4/1989 5/1989,6/1989 7/1989,8/1989 9/1989,10/1989 11/1989,12/1989 
1990,1990 has 1/1990,2/1990 3/1990,4/1990 5/1990,6/1990 7/1990,8/1990 9/1990,10/1990 11/1990,12/1990 
1991,1991 has 1/1991,2/1991 3/1991,4/1991 5/1991,6/1991 7/1991,8/1991 9/1991,10/1991 11/1991,12/1991 
1992,1992 has 1/1992,2/1992 3/1992,4/1992 5/1992,6/1992 7/1992,8/1992 9/1992,10/1992 11/1992,12/1992 
1993,1993 has 1/1993,2/1993 3/1993,4/1993 5/1993,6/1993 7/1993,8/1993 9/1993,10/1993 11/1993,12/1993 
1994,1994 has 1/1994,2/1994 3/1994,4/1994 5/1994,6/1994 7/1994,8/1994 9/1994,10/1994 11/1994,12/1994 
1995,1995 has 1/1995,2/1995 3/1995,4/1995 5/1995,6/1995 7/1995,8/1995 9/1995,10/1995 11/1995,12/1995 
1996,1996 has 1/1996,2/1996 3/1996,4/1996 5/1996,6/1996 7/1996,8/1996 9/1996,10/1996 11/1996,12/1996 
1997,1997 has 1/1997,2/1997 3/1997,4/1997 5/1997,6/1997 7/1997,8/1997 9/1997,10/1997 11/1997,12/1997 
1998,1998 has 1/1998,2/1998 3/1998,4/1998 5/1998,6/1998 7/1998,8/1998 9/1998,10/1998 11/1998,12/1998 
1999,1999 has 1/1999,2/1999 3/1999,4/1999 5/1999,6/1999 7/1999,8/1999 9/1999,10/1999 11/1999,12/1999 
2000,2000 has 1/2000,2/2000 3/2000,4/2000 5/2000,6/2000 7/2000,8/2000 9/2000,10/2000 11/2000,12/2000 
2001,2001 has 1/2001,2/2001 3/2001,4/2001 5/2001,6/2001 7/2001,8/2001 9/2001,10/2001 11/2001,12/2001 
2002,2002 has 1/2002,2/2002 3/2002,4/2002 5/2002,6/2002 7/2002,8/2002 9/2002,10/2002 11/2002,12/2002 
2003,2003 has 1/2003,2/2003 3/2003,4/2003 5/2003,6/2003 7/2003,8/2003 9/2003,10/2003 11/2003,12/2003 
2004,2004 has 1/2004,2/2004 3/2004,4/2004 5/2004,6/2004 7/2004,8/2004 9/2004,10/2004 11/2004,12/2004 
2005,2005 has 1/2005,2/2005 3/2005,4/2005 5/2005,6/2005 7/2005,8/2005 9/2005,10/2005 11/2005,12/2005 
2006,2006 has 1/2006,2/2006 3/2006,4/2006 5/2006,6/2006 7/2006,8/2006 9/2006,10/2006 11/2006,12/2006 
2007,2007 has 1/2007,2/2007 3/2007,4/2007 5/2007,6/2007 7/2007,8/2007 9/2007,10/2007 11/2007,12/2007 
2008,2008 has 1/2008,2/2008 3/2008,4/2008 5/2008,6/2008 7/2008,8/2008 9/2008,10/2008 11/2008,12/2008 
2009,2009 has 1/2009,2/2009 3/2009,4/2009 5/2009,6/2009 7/2009,8/2009 9/2009,10/2009 11/2009,12/2009 
2010,2010 has 1/2010,2/2010 3/2010,4/2010 5/2010,6/2010 7/2010,8/2010 9/2010,10/2010 11/2010,12/2010 
2011,2011 has 1/2011,2/2011 3/2011,4/2011 5/2011,6/2011 7/2011,8/2011 9/2011,10/2011 11/2011,12/2011 
2012,2012 has 1/2012,2/2012 3/2012,4/2012 5/2012,6/2012 7/2012,8/2012 9/2012,10/2012 11/2012,12/2012 
2013,2013 has 1/2013,2/2013 3/2013,4/2013 5/2013,6/2013 7/2013,8/2013 9/2013,10/2013 11/2013,12/2013 
2014,2014 has 1/2014,2/2014 3/2014,4/2014 5/2014,6/2014 7/2014,8/2014 9/2014,10/2014 11/2014,12/2014 
2015,2015 has 1/2015,2/2015 3/2015,4/2015 5/2015,6/2015 7/2015,8/2015 9/2015,10/2015 11/2015,12/2015 
2016,2016 has 1/2016,2/2016 3/2016,4/2016 5/2016,6/2016 7/2016,8/2016 9/2016,10/2016 11/2016,12/2016 

1940,1942 has 1940,1940 1941,1941 1942,1942 
1943,1945 has 1943,1943 1944,1944 1945,1945 
1946,1948 has 1946,1946 1947,1947 1948,1948 
1949,1951 has 1949,1949 1950,1950 1951,1951 
1952,1954 has 1952,1952 1953,1953 1954,1954 
1955,1957 has 1955,1955 1956,1956 1957,1957 
1958,1960 has 1958,1958 1959,1959 1960,1960 
1961,1963 has 1961,1961 1962,1962 1963,1963 
1964,1966 has 1964,1964 1965,1965 1966,1966 
1967,1969 has 1967,1967 1968,1968 1969,1969 
1970,1972 has 1970,1970 1971,1971 1972,1972 
1973,1975 has 1973,1973 1974,1974 1975,1975 
1976,1978 has 1976,1976 1977,1977 1978,1978 
1979,1981 has 1979,1979 1980,1980 1981,1981 
1982,1984 has 1982,1982 1983,1983 1984,1984 
1985,1987 has 1985,1985 1986,1986 1987,1987 
1988,1990 has 1988,1988 1989,1989 1990,1990 
1991,1993 has 1991,1991 1992,1992 1993,1993 
1994,1996 has 1994,1994 1995,1995 1996,1996 
1997,1999 has 1997,1997 1998,1998 1999,1999 
2000,2002 has 2000,2000 2001,2001 2002,2002 
2003,2005 has 2003,2003 2004,2004 2005,2005 
2006,2008 has 2006,2006 2007,2007 2008,2008 
2009,2011 has 2009,2009 2010,2010 2011,2011 
2012,2014 has 2012,2012 2013,2013 2014,2014 
2015,2016 has 2015,2015 2016,2016 

1940,1948 has 1940,1942 1943,1945 1946,1948 
1949,1957 has 1949,1951 1952,1954 1955,1957 
1958,1966 has 1958,1960 1961,1963 1964,1966 
1967,1975 has 1967,1969 1970,1972 1973,1975 
1976,1984 has 1976,1978 1979,1981 1982,1984 
1985,1993 has 1985,1987 1988,1990 1991,1993 
1994,2002 has 1994,1996 1997,1999 2000,2002 
2003,2011 has 2003,2005 2006,2008 2009,2011 
2012,2016 has 2012,2014 2015,2016 

1940,1966 has 1940,1948 1949,1957 1958,1966 
1967,1993 has 1967,1975 1976,1984 1985,1993 
1994,2016 has 1994,2002 2003,2011 2012,2016 

1940,2016 has 1940,1966 1967,1993 1994,2016 

